<?xml version="1.0" encoding="UTF-8"?>
<svg width="206px" height="205px" viewBox="0 0 206 205" version="1.1" xmlns="http://www.w3.org/2000/svg" xmlns:xlink="http://www.w3.org/1999/xlink">
    <title>illustration</title>
    <defs>
        <path d="M51,88 C73.6436747,88 102,69.6436747 102,47 C102,29.562648 85.1842128,14.6677678 67.1108602,8.74021476 C66.5716557,8.56337081 66.7552102,7.68602809 67.1322699,6.62675751 L67.2921594,6.19457567 L67.2921594,6.19457567 L67.9056438,4.63559971 L67.9056438,4.63559971 L68.0652671,4.20736098 L68.0652671,4.20736098 L68.2041316,3.80028038 C68.4770795,2.94652028 68.5508465,2.29368261 68.0809079,2.17933782 C67.6785788,2.08144368 66.812973,2.44162791 65.7554488,2.99453926 L65.2119498,3.28582705 L65.2119498,3.28582705 L64.6440022,3.60186515 L64.6440022,3.60186515 L62.2784795,4.96610338 L62.2784795,4.96610338 L61.4201126,5.45310097 C61.3273357,5.50477745 61.2355816,5.55548892 61.1450073,5.60508182 L60.6169754,5.88798783 C59.6794793,6.37753581 58.922743,6.69457495 58.5557814,6.63471721 C58.0213366,6.54754006 58.2254703,5.62283035 58.6297855,4.50552591 L58.7799203,4.10423632 L58.7799203,4.10423632 L59.0247861,3.48609668 L59.0247861,3.48609668 L59.5202124,2.26945379 L59.5202124,2.26945379 L59.735267,1.71348258 L59.735267,1.71348258 L59.8544865,1.37666397 L59.8544865,1.37666397 L59.9482489,1.07425966 C60.0407428,0.743980049 60.0705226,0.4968276 60,0.377828504 C59.8845994,0.18310271 59.4827488,0.254073641 58.9093829,0.495225429 L58.6089392,0.629540857 C58.5566604,0.654142984 58.5033236,0.679816372 58.4489953,0.706505744 L58.1116589,0.878391603 L58.1116589,0.878391603 L57.7537183,1.07200789 L57.7537183,1.07200789 L57.378366,1.28470139 L57.378366,1.28470139 L56.9887948,1.51381888 L56.9887948,1.51381888 L56.3847611,1.88248619 L56.3847611,1.88248619 L55.5594143,2.4067632 L55.5594143,2.4067632 L54.734659,2.94897825 L54.734659,2.94897825 L53.5545061,3.74950332 L53.5545061,3.74950332 L52.8429716,4.24370081 C51.7403945,5.01550481 50.6656002,5.57582434 49.7591223,5.95917118 L49.3532111,6.12366005 C49.2222324,6.17438475 49.0957492,6.22104642 48.9742733,6.26377072 L48.6253791,6.3802572 L48.6253791,6.3802572 L48.3095989,6.4738735 C48.259899,6.48761226 48.2117067,6.50042951 48.1650861,6.51234097 L47.904734,6.57306578 C47.8646559,6.58141688 47.8262773,6.58889359 47.7896623,6.59551163 L47.5916466,6.62504148 C47.5623417,6.62828767 47.5349282,6.6307066 47.5094702,6.63231398 L47.4390265,6.63471721 C24.7953517,6.63471721 0,24.3563253 0,47 C0,69.6436747 28.3563253,88 51,88 Z" id="path-1"></path>
        <path d="M41,65.9215686 C59.2037385,65.9215686 82,51.1645228 82,32.9607843 C82,14.7570458 59.2037385,3.55271368e-14 41,3.55271368e-14 C22.7962615,3.55271368e-14 0,14.7570458 0,32.9607843 C0,51.1645228 22.7962615,65.9215686 41,65.9215686 Z" id="path-3"></path>
    </defs>
    <g id="Current-Expirements" stroke="none" stroke-width="1" fill="none" fill-rule="evenodd">
        <g id="illustration">
            <g id="background" opacity="0.5" fill-rule="nonzero">
                <path d="M115.618992,6.93633863 C116.842897,7.21903584 117.898193,7.823873 118.698908,8.63884899 C119.368404,9.32027007 119.907628,10.1614799 120.204789,11.3133015 C120.426193,12.1714853 120.466994,13.092972 120.317772,14.0214838 L120.312962,14.0506301 L120.391707,14.0973984 C122.41578,15.3081735 124.211451,16.6332411 125.972104,18.219341 L126.171669,18.4002844 L126.433636,18.640586 L126.603975,18.798551 L126.894883,19.071591 C127.517486,19.6603809 128.164567,20.3005749 129.060382,21.2044365 L129.292412,21.4389907 L129.348887,21.4888821 C129.698554,21.8008843 129.990651,22.0984906 130.315744,22.5338125 C130.903898,23.3213923 131.333912,24.2561519 131.513798,25.382857 L131.526631,25.4664438 L131.538206,25.5487723 L131.554151,25.5556418 C131.83842,25.6813384 132.118014,25.8200088 132.394172,25.9734049 L132.486099,26.0250848 C133.268453,26.4701938 133.975359,27.0195668 134.584316,27.7015337 C135.552146,28.7854017 136.039631,30.1222345 136.088585,31.5129217 L136.116599,31.5125268 L136.767578,31.5879121 L136.984754,31.6144124 C137.358278,31.6613295 137.57981,31.6977703 137.799795,31.7525099 L139.392281,31.8194066 L140.623809,31.8726601 C142.359983,31.9485811 144.162728,32.0309196 146.044063,32.120126 L147.83405,32.2059207 C149.298268,32.2768307 150.506276,32.5964769 151.825875,33.1175769 C152.482437,33.3768484 153.106179,33.736391 153.681424,34.2685726 C153.681518,34.1851195 153.682374,34.1014715 153.68375,34.0177008 L153.686388,33.8839698 C153.721027,32.3790071 153.934627,31.0420082 154.590225,29.5940032 C155.238676,28.1617819 156.247049,26.8577349 157.751122,25.8623566 C159.584692,24.6489205 161.740532,24.2162131 163.80712,24.5264403 C165.194896,24.7347673 166.350881,25.2266053 167.373795,25.8882862 C167.989102,26.2863029 168.516511,26.7231532 169.006256,27.2027592 C169.591811,27.7761916 170.110103,28.3982119 170.628705,29.1081448 L170.72024,29.2343477 L170.861361,29.4320063 C171.986561,31.0219538 173.03489,32.8417465 174.980538,36.4438888 L176.497899,39.2588949 C177.943445,41.9283419 178.598952,43.070551 179.152008,43.880083 L179.308481,44.1089664 L179.43299,44.2931085 C179.924805,45.0245023 180.351412,45.7083366 181.052542,46.8677284 L181.822011,48.1400961 L181.997477,48.4267169 L182.133744,48.6470871 C182.278632,48.8800924 182.404116,49.0773247 182.533533,49.2760674 L182.630381,49.4235357 L182.683583,49.500341 L182.737153,49.5748603 C182.801709,49.663527 182.88923,49.7803624 183.016928,49.948492 L183.337823,50.3702979 L183.515152,50.6055272 L183.642218,50.7759898 C183.948285,51.1890989 184.172677,51.5121722 184.434692,51.9211181 L184.92324,52.6918448 L185.21615,53.1585337 L185.365448,53.398226 C186.268906,54.8530459 186.860071,55.8885214 187.484162,57.1363703 C188.078467,58.3246629 188.362395,59.5626651 188.378,60.7737664 C189.833618,63.3118788 189.205999,66.6336507 187.043062,68.9841768 C187.213992,69.6121221 187.353008,70.2404298 187.460171,70.8868128 L187.485278,71.0423022 C187.607808,71.8218958 187.662135,72.5974486 187.589407,73.4767495 C187.822971,73.5650012 188.061384,73.6715646 188.310984,73.8046022 L188.531987,73.9298426 L188.638049,73.9921032 L188.698875,74.0294166 L188.754981,74.0653532 C188.915312,74.1704041 189.068851,74.2919489 189.433668,74.5807475 L189.62441,74.7639842 L189.771575,74.9082368 L189.837564,74.9750098 L189.878773,75.0177944 C190.187017,75.3416416 190.326314,75.5800892 190.83804,76.4560556 C191.84498,78.6090827 191.483352,81.2195461 190.021386,83.3327935 C189.216957,84.4955826 188.32991,85.2351528 187.372321,85.8094685 C186.687348,86.2202817 186.148876,86.4406244 185.578244,86.6209678 L185.509602,86.6424267 C185.335017,86.6964268 185.176723,86.7410172 185.026129,86.7790343 L185.174054,87.2298098 L185.461603,88.0993184 L185.48922,88.1501999 C185.537351,88.2392452 185.584362,88.3285015 185.631485,88.4208907 L185.678691,88.5144324 C185.921974,89.0016882 186.133206,89.5050839 186.311858,90.0722527 C186.482583,90.6142547 186.656936,91.3186914 186.765261,91.9255007 C186.810649,92.1797506 186.848309,92.4333773 186.877006,92.7071502 L186.891964,92.85887 C186.940718,93.3887405 186.950431,93.9111683 186.881287,94.571552 C186.784149,95.4993047 186.563334,96.419381 186.032222,97.4762877 C185.533141,98.4694557 184.826618,99.4049943 183.831166,100.211914 C183.512208,100.470464 183.175004,100.704751 182.822484,100.91305 C184.455729,101.864519 185.63455,103.282972 185.59623,106.091508 C185.56721,108.218381 184.829648,109.823961 183.730682,111.033757 C183.72683,111.07978 183.722726,111.125882 183.718247,111.172079 L183.700273,111.340351 L184.708345,113.331129 L185.537566,114.977601 L186.450353,116.800947 C187.65253,119.210843 188.690789,121.328188 189.383369,122.794484 L189.542258,123.132426 L189.692877,123.456925 L189.824994,123.746189 C190.367458,124.943638 190.818628,126.064514 191.516975,127.902956 L192.290092,129.949023 L192.570046,130.680169 L192.710117,131.040419 C192.923467,131.585373 193.10014,132.017834 193.287971,132.456766 L193.602826,133.182556 L194.119012,134.358634 C194.824579,135.955676 195.578566,137.61901 196.7223,140.111829 L199.489744,146.139279 L199.966171,147.187013 L200.45107,148.259402 L200.575925,148.530866 C200.680402,148.759316 200.75097,148.919332 200.840326,149.133965 C201.024744,149.576932 201.184983,150.017825 201.324965,150.496375 C201.666716,151.66471 201.771518,152.933841 201.582657,154.21331 C201.426845,155.268881 201.081985,156.334531 200.433777,157.398915 C199.422395,159.059645 197.83055,160.397041 195.793192,161.043454 C194.024638,161.60458 192.166139,161.554567 190.484281,160.968329 C189.310164,160.559073 188.38405,159.964549 187.604275,159.262269 C187.231561,158.926596 186.932099,158.601391 186.663044,158.268569 L186.584249,158.169814 C186.521422,158.089982 186.465162,158.015733 186.411561,157.942752 L186.381836,157.901847 L185.705962,157.038628 L185.507935,156.783953 C184.807921,155.880905 184.384059,155.301032 183.880607,154.543172 L183.6049,154.127265 L183.303465,153.670338 C181.853527,151.466388 180.745712,149.690516 179.709999,147.872897 L178.918524,146.469801 L178.24063,145.256515 C177.252112,143.479382 176.215008,141.580301 174.719627,138.818318 L174.048315,137.57723 L174.027646,137.581968 C173.808327,137.630467 173.584704,137.670931 173.356949,137.702946 L173.271348,137.714555 C172.021939,137.877828 170.838781,137.756507 169.749554,137.433502 C169.003487,137.212259 168.352043,136.91282 167.759128,136.558316 C167.061596,136.141261 166.524209,135.702474 166.027818,135.217731 C165.763372,134.95949 165.539527,134.715054 165.316836,134.454305 C165.270136,134.399624 165.225339,134.346358 165.180299,134.292117 L165.024238,134.101676 L164.95539,134.028725 C164.542133,133.589429 164.13713,133.154783 163.739765,132.723962 L163.492638,132.455353 L163.578324,132.750359 C163.761114,133.380172 163.943972,134.012867 164.126923,134.648508 L164.170749,134.711023 C164.275586,134.863356 164.401478,135.065007 164.61159,135.401561 L164.744563,135.670116 L164.791253,135.768325 C164.891514,135.984447 164.938559,136.128156 165.091234,136.594533 L165.163243,136.925498 L165.196635,137.090282 L165.21128,137.169249 L165.22784,137.268162 C165.279843,137.601576 165.286815,137.907423 165.30644,138.768402 L165.306216,138.770297 L167.079028,144.92391 L167.530816,146.498877 C169.772387,154.331816 170.999317,158.923211 172.196321,164.141119 L172.313752,164.655433 C174.176387,172.851353 175.325719,180.271668 175.740223,187.549206 C175.859734,189.647491 175.196474,191.805503 173.681718,193.532452 C172.383762,195.012232 170.792523,195.838091 169.159604,196.190609 C167.589388,196.529592 166.299097,196.403897 165.079215,196.062557 C164.33906,195.855451 163.62669,195.549846 162.966342,195.156115 C161.908072,194.525124 160.946535,193.695592 160.122855,192.388519 L159.731781,191.766212 L159.402232,191.238634 C158.089549,189.13036 157.170743,187.567369 156.274991,185.879845 L155.928691,185.224343 L155.547104,184.499533 L155.217099,183.87057 C154.887996,183.242295 154.560322,182.613627 154.222601,181.962409 L153.746436,181.041924 L153.698345,181.069209 C153.556967,181.148499 153.412579,181.224427 153.265215,181.296841 L153.17644,181.339866 C152.302241,181.7577 151.407799,182.014946 150.518663,182.12857 L150.481886,182.133017 L150.474522,182.169892 C150.315022,182.964168 150.05839,183.744851 149.637183,184.540095 L149.580988,184.644376 L149.548253,184.74823 C149.262297,185.646027 148.914117,186.521166 148.502304,187.364959 L148.440054,187.491292 C147.522848,189.335085 145.968356,190.80861 144.017856,191.608403 C143.37615,191.871531 142.742377,192.046273 142.119049,192.147063 L141.996183,192.165929 L141.994105,192.171161 C141.958344,192.264935 141.9207,192.359108 141.881107,192.453707 L141.840862,192.548449 C140.803663,194.954705 138.713688,196.86418 135.957367,197.547957 C135.708605,197.609669 135.456328,197.660762 135.201076,197.700797 C134.130007,197.868792 133.06165,197.834722 132.039769,197.619679 L132.002902,197.611701 L130.350305,198.732406 L130.121981,198.452331 L130.056292,198.366948 L129.919426,198.18155 L129.063984,196.996822 L129.053612,197.007172 C128.55679,197.498756 128.007969,197.916802 127.424969,198.261243 L127.351917,198.303915 C126.489916,198.801716 125.641063,199.096995 124.800231,199.264794 C123.872075,199.45002 123.073901,199.462712 122.301977,199.387202 C121.855206,199.343499 121.440375,199.268899 121.043962,199.171271 C120.396602,199.01184 119.754899,198.778139 119.143176,198.472363 C118.729358,198.265512 118.31786,198.021331 117.902394,197.7196 C117.22193,197.225415 116.585101,196.62501 116.000131,195.815996 L115.428635,195.021011 L115.039997,194.474474 C114.310543,193.443852 113.559504,192.355541 112.494545,190.792747 L111.34492,189.101657 L111.328137,189.123688 C109.622385,191.350881 106.866801,192.698234 103.830752,192.438397 L103.732718,192.429456 C102.018609,192.263519 100.552363,191.68724 99.2503505,190.851555 C98.8496824,190.59439 98.4926862,190.330659 98.1417394,190.045553 L98.0568553,189.976163 L97.9590236,189.894958 C97.8790353,189.827975 97.8012791,189.761381 97.7136562,189.685219 L97.428601,189.435591 L97.2351849,189.287673 C95.8975547,188.259648 94.6247025,187.211086 93.4131391,186.134164 L92.111011,184.965771 C91.3734231,185.483435 90.5400337,185.89104 89.6254062,186.158152 L89.5635841,186.175756 L89.5629769,186.184988 C89.4770974,187.494473 89.2855017,188.795161 88.9805139,190.091928 L88.9211047,190.3385 L88.954419,190.391547 C89.2475871,190.859879 89.4942669,191.318436 89.7389611,191.895751 L89.7797327,191.993091 C90.4366123,193.579917 90.7180407,195.33853 90.381792,197.259402 C90.1772944,198.427627 89.7384352,199.595918 88.9315573,200.72376 C87.8211319,202.275896 86.2023517,203.420759 84.3201041,203.934554 C82.8288101,204.341632 81.422222,204.306947 80.1301088,203.996246 C79.3620362,203.810926 78.7076925,203.546399 78.1078144,203.227403 C77.4675026,202.886906 76.977001,202.535684 76.5112599,202.14441 C76.2715573,201.943033 76.0643343,201.751171 75.8588538,201.548874 C75.7968889,201.487869 75.7374496,201.428174 75.6775762,201.367121 L75.4933899,201.176815 L75.4784721,201.162256 C75.1482067,200.834207 74.861631,200.505972 74.594595,200.16487 L74.5222332,200.071514 L74.4557033,199.983768 L74.2771513,199.848766 C74.1723977,199.768735 74.0793772,199.69602 73.9768731,199.613866 L73.8861951,199.540746 C73.4673239,199.201101 73.0760272,198.849402 72.6876489,198.446858 L71.488246,197.20213 L70.317925,195.984574 L69.2186713,194.838303 C67.8704783,193.430897 66.504209,191.998972 65.1090073,190.531308 L63.9865219,189.349213 L63.9249412,189.305933 C62.7881098,188.50418 61.6684798,187.705703 60.5284609,186.883292 L60.0119114,186.509857 L59.9978123,186.517389 C59.0532709,187.01138 58.0434051,187.312131 57.0221461,187.431251 L56.9557033,187.438571 L56.9564863,187.522856 C56.9594817,188.046865 56.9168809,188.583127 56.8210662,189.129113 L56.8011915,189.238439 C56.4956887,190.86256 55.7527887,192.452195 54.3953159,193.80469 C52.9092445,195.285312 51.0264227,196.080572 49.1167006,196.231402 C47.8920257,196.328128 46.8070191,196.161801 45.811499,195.838177 C44.7290704,195.486301 43.8035662,194.956591 43.0168434,194.3215 L42.3660176,193.789349 L42.1652928,193.623945 L41.9737721,193.464565 C41.0691058,192.707463 40.460301,192.132709 39.7607131,191.323728 L39.077797,190.525817 L38.4833418,189.827562 C37.6199567,188.810752 36.8828613,187.930289 36.2578831,187.169483 L36.1701067,187.062253 L36.1347773,187.067795 C35.8939587,187.104197 35.65037,187.130275 35.4045647,187.145661 L35.3122849,187.150929 C33.8432311,187.226706 32.4967204,186.921483 31.3123883,186.366097 C30.5428053,186.005204 29.9065185,185.571759 29.3491699,185.087903 C28.73246,184.552514 28.2929266,184.033904 27.9054865,183.481575 C27.7049644,183.195714 27.5404147,182.929336 27.3867376,182.657595 C27.3167421,182.533825 27.2531881,182.41611 27.1908007,182.296545 L27.1479656,182.213805 L27.0711137,182.062137 L26.3724612,180.778978 L25.7795938,179.697439 C24.5185969,177.405807 23.4897799,175.596685 22.3908761,173.748516 L22.080583,173.22842 L22.0354508,173.184188 C21.6394752,172.790509 21.288028,172.363597 20.979013,171.910722 L20.927903,171.835004 C20.5947096,171.336005 20.3685357,170.906489 20.1426549,170.411366 L20.062085,170.232012 L19.978215,170.039252 C19.7916875,169.603919 19.5682063,169.039969 19.1967551,168.081109 C18.6470455,166.662096 18.4963011,165.14865 18.7029512,163.713164 C18.8757364,162.512919 19.2779589,161.310733 20.1188355,160.093902 C20.7453446,159.187283 21.5475828,158.405406 22.4811101,157.802762 L22.5104964,157.783967 L22.5007871,157.669679 C22.2589966,154.725086 22.2702458,151.910675 22.5393775,148.920096 L22.5709292,148.580185 L22.6148476,148.13175 L22.6669618,147.631237 C22.792631,146.461783 22.9494809,145.257089 23.1940827,143.51097 L23.2525183,143.096292 L23.2602651,143.001159 C23.3021449,142.513049 23.3609861,142.070976 23.4802203,141.556588 C23.1445714,141.483482 22.8176831,141.396916 22.4813361,141.286399 C21.5373356,140.976218 20.6646144,140.454777 19.9536042,139.725143 C19.3670156,139.12319 18.8823371,138.385607 18.5723514,137.438556 C18.0886887,135.960898 18.1447893,134.232617 18.8987108,132.519243 C19.5531619,131.031927 20.6504941,129.768369 21.9899277,128.878109 C22.9249967,128.256611 23.8365375,127.893564 24.7331938,127.682288 C25.1617743,127.581304 25.541663,127.526145 25.9089999,127.495607 L26.0173998,127.487266 C26.0827481,127.48266 26.1439682,127.479142 26.2031705,127.476422 L26.3050094,127.47252 L27.2451606,127.408521 C27.3262747,127.403158 27.4049256,127.39804 27.481355,127.393161 L26.8462616,126.365351 L25.9496756,124.90861 L25.0722648,123.479233 C23.9501237,121.648871 22.7863714,119.742001 21.5725082,117.744958 L20.7456756,116.383486 C19.8465274,114.901694 19.3396663,113.468857 18.9406676,111.765189 C18.7624286,111.004134 18.6743121,110.203721 18.7309032,109.332803 C16.8880514,108.342265 15.123619,107.311381 13.4211334,106.227083 C12.0090588,105.327745 11.0074308,103.858401 10.769905,102.001174 C10.5663752,100.409763 10.9496748,98.921326 11.6599539,97.6255725 C12.3429588,96.379575 13.1630494,95.5449098 14.0808627,94.8599334 C14.6377397,94.4443285 15.2417609,94.0940663 15.872391,93.8210755 C16.5619922,93.5225569 17.2849673,93.2984912 18.0905815,93.1994102 L13.2656966,85.6384921 L13.2406803,85.5984341 L13.0967326,85.353587 L13.0432646,85.2540133 C13.000724,85.1715415 12.9339353,85.0371259 12.7986618,84.764881 L12.7199939,84.5906287 L12.683668,84.5043284 C12.6404504,84.3980278 12.5888876,84.2584276 12.4721227,83.9423008 L12.4192735,83.7805012 C12.334425,83.5171564 12.3126442,83.4178082 12.1695135,82.7649484 L12.13416,82.5484845 L12.1153627,82.4222077 C12.0811067,82.1742269 12.0715807,81.969221 12.0375839,81.2375868 L12.0426028,81.0452903 C12.0494541,80.9024302 12.0676334,80.707579 12.1269941,80.0713299 L12.1680082,79.8393838 L12.176742,79.7887213 L12.1983335,79.691863 C12.2237092,79.5825932 12.2571533,79.4534373 12.3144406,79.2480266 L12.5522413,78.4081135 L13.0175659,77.3719553 L13.7410231,76.2458397 L14.7646929,75.1309633 L16.0567392,74.1692622 L17.4940851,73.4804946 L18.9135298,73.0992318 L20.1895435,72.9753357 L21.2676632,73.0241591 L22.1483594,73.1697535 L22.8580524,73.3598179 L23.429268,73.5633459 L23.6724271,73.6645951 L24.1499132,73.8972911 L24.2588525,73.9517685 L24.338759,73.9927202 C24.5525267,74.1038366 24.6693611,74.1788773 24.955903,74.3629181 L25.3598427,74.6567149 L25.4438924,74.7187293 C25.6906007,74.9019107 25.7641878,74.968859 25.9964611,75.1801773 L26.2310936,75.4055788 L26.2815427,75.4558389 L26.3410754,75.4785308 C27.0252114,75.7420993 27.5137543,76.0167851 27.9948702,76.3400353 L28.0998454,76.4111621 L28.4728928,76.6457356 L28.6068665,76.7312131 C28.7361638,76.8143579 28.8529217,76.8915695 28.9705421,76.9724367 C29.0355838,76.0555315 29.2830452,75.1115222 29.7304004,74.1839513 L29.1818515,73.3722925 L28.9616694,73.0900314 C28.1159119,72.0041794 27.2731602,70.911953 26.458663,69.8431844 L25.9211267,69.1358697 C23.1311587,65.4548538 21.2865757,62.8651146 20.3490009,61.1433416 L20.291235,61.0362067 C20.1362643,60.745844 19.9987558,60.4633455 19.8581821,60.118141 C19.7088355,59.7513931 19.5783271,59.370192 19.4650273,58.903786 C19.3615342,58.4777502 19.2849545,58.027932 19.2486058,57.5168559 C19.1828537,56.5923602 19.2525475,55.6259132 19.5732155,54.5475097 C20.771732,50.5169098 24.6818915,48.1519032 28.6293226,48.66654 C29.5891945,48.791681 30.3839302,49.0516652 31.1088692,49.3932006 C31.5190401,49.5864415 31.8704527,49.7906369 32.1952722,50.0075446 C32.7541947,50.3807814 33.1195659,50.6991554 33.491444,51.0687393 L33.5422138,51.1194645 C33.9017193,51.480489 34.1991216,51.8269275 34.5779509,52.3000959 L34.7606079,52.5299036 L34.8983171,52.7051933 C35.3920349,53.336889 35.9989398,54.1459727 36.4028804,54.7065062 L36.5266191,54.8794836 L36.6242145,55.0182498 L36.7097838,55.1419727 C37.0043013,55.5714323 37.2512792,55.9704228 37.5987237,56.5601974 L38.0098375,57.2616156 L38.1321128,57.4663728 C38.2193502,57.6104762 38.2733431,57.6939483 38.3196073,57.7594468 L38.4693097,57.968452 L38.6069069,58.1553968 L38.7269923,58.3150776 C38.8738744,58.5087233 39.0469748,58.7313671 39.2723219,59.0173298 L40.1513135,60.1282197 L40.4132516,60.4624281 L40.6056051,60.710157 C40.7292437,60.8701842 40.8441769,61.020635 40.9533375,61.1655561 C41.3482251,61.0781843 41.761983,61.0192442 42.2033041,60.9962002 L41.4885242,59.934141 C40.9664613,59.1629331 40.4481977,58.4133945 39.6363256,57.2527709 L37.6442912,54.4090546 L37.0133654,53.5022012 L36.7442655,53.1129364 C36.3676026,52.5667308 36.038178,52.0829615 35.6920011,51.5682593 L34.9950666,50.5291618 L34.7982631,50.2339234 C33.754776,48.6644287 33.1583613,47.6964421 32.5073048,46.4598233 L32.4673716,46.3837689 C32.275603,46.0175587 32.1055902,45.6439276 31.9412566,45.1649791 C31.7692315,44.6636139 31.6336335,44.1329182 31.5526562,43.4953556 L31.5199936,43.1794505 L31.5062576,43.0261061 L31.499023,42.9239643 C31.4828069,42.6577869 31.4907691,42.4228313 31.5126257,41.7778683 L31.5520441,41.444696 L31.5850462,41.1853218 L31.6046416,41.0477688 C31.6941848,40.4522356 31.8101363,40.1432329 32.2762701,38.9010182 C33.5511529,36.187189 36.1376377,34.4365475 39.0004125,34.1569968 C40.5756199,34.0031774 41.824387,34.2706112 42.9708656,34.7397814 C43.8237556,35.0888072 44.3870854,35.4495823 44.9453077,35.8813255 C45.5068295,36.3156205 45.8418566,36.6522317 46.2831977,37.137634 C46.7260909,37.6247435 47.20432,38.2051489 47.5695234,38.7250065 L47.6327675,38.8160863 L47.7677878,39.014292 C48.1336382,39.5554128 48.4315368,40.0313107 48.8805658,40.7803143 L49.5456022,41.8950299 L49.7130028,42.1717499 L49.8185457,42.3437521 C49.952087,42.559767 50.0588773,42.7256455 50.1626595,42.8791691 L50.2400828,42.9922254 L50.2856717,43.000174 C50.3633633,43.0139666 50.4407292,43.0287524 50.5177637,43.0444911 L50.5946875,43.060546 C51.8636941,43.3309847 52.682548,43.7428574 53.497616,44.2842096 C53.8020086,44.4863812 54.0509744,44.6772794 54.2881731,44.8759926 C54.5005908,45.0539455 54.6826257,45.2209768 54.8648098,45.3982375 L54.9331954,45.4652312 C55.2850966,45.8122211 55.6575783,46.2150136 56.1496998,46.7667563 L56.4359225,47.0892958 L57.2390628,48.0023093 C57.9577802,48.8142625 58.6388783,49.6336883 59.2827599,50.4644803 C60.0332202,50.2538182 60.7779391,50.0588549 61.5178081,49.8798128 L63.0123427,49.5249831 C63.1036645,48.7719293 63.3203739,48.0040484 63.6736093,47.2456689 L63.6977745,47.1946193 L63.692211,47.1898776 C62.9029509,46.5175072 62.1799212,45.776048 61.524399,44.9579024 L61.4005689,44.8013559 L61.3475054,44.7995963 C60.8795774,44.7834068 60.4445566,44.7396007 59.9346305,44.6388349 L59.8489307,44.6215082 C58.4563288,44.3336725 57.1689395,43.7054405 56.131711,42.5735371 C55.5008956,41.8851428 55.0043752,41.0344273 54.7447069,39.9477996 C54.3873515,38.4523828 54.5821743,36.7955655 55.3321022,35.2516724 C55.9262659,34.0284548 56.7547437,33.0706596 57.6943415,32.3213242 C58.2532715,31.8761907 58.7977284,31.5468842 59.3458423,31.2807877 C59.8507944,31.0356452 60.2968954,30.8715188 60.7423018,30.7415608 L60.7283897,30.717713 L60.6437644,30.568363 L60.5748122,30.4432762 C60.4627125,30.237199 60.3627667,30.0381716 60.2457442,29.7718667 C60.1625647,29.5825776 60.0828245,29.384214 60.0023961,29.1537994 C59.8292564,28.6577816 59.6930339,28.1504032 59.6057308,27.4833445 L59.5867742,27.3319225 C59.291618,24.8601765 59.7158628,22.4608954 62.3868641,20.1324673 C65.6939761,17.2495138 68.9921915,17.6146332 71.7034291,19.0289479 C72.4278752,19.4068546 72.9248106,19.7782946 73.3948518,20.1967631 C73.5997117,20.3791459 73.7688407,20.5463776 73.9268641,20.7140153 C74.0892053,20.8862335 74.2187937,21.0364589 74.3447216,21.1905133 C74.4671052,21.3402317 74.5741626,21.4796165 74.6892095,21.6347515 L75.2412297,22.3819334 C76.1912001,23.6729425 77.0857953,24.9170435 78.3812275,26.7446868 L78.6832639,27.1724781 C79.0826877,27.0340768 79.4837144,26.8958675 79.8879101,26.7573159 L80.4231181,26.5744029 L80.426377,26.5611143 C80.6514852,25.6758304 81.0377724,24.8357561 81.5468923,24.0728044 L81.5802904,24.0233681 L81.5258724,23.9844609 C81.1886233,23.7412743 80.8696642,23.4607781 80.574981,23.1388813 L80.5163699,23.0739487 C79.6515326,22.1022295 79.0594972,20.8437641 78.9715855,19.2707142 C78.8753455,17.5486434 79.4453762,15.8726142 80.4434659,14.4795806 C81.0835252,13.5862499 81.8119623,12.9127569 82.5898253,12.3748539 C83.4355955,11.7899923 84.3052855,11.3970317 85.1629018,11.1494971 L85.8767069,10.9478875 L86.0976752,10.8863071 L86.3317056,10.8222688 C87.3234663,10.5539282 88.0366475,10.4028276 88.9488718,10.2978027 L89.8512418,10.1983593 L90.853663,10.0907737 L91.8189866,9.9905599 C92.4790219,9.92338105 93.0766455,9.86555471 93.6167623,9.81655843 L93.7357381,9.8059642 L93.7524402,9.7789052 C93.8671708,9.5951063 93.9900999,9.4142212 94.1211457,9.23680537 L94.1706681,9.17043814 C94.9642209,8.11768543 95.9314922,7.32811703 96.9659858,6.7679421 C97.6382032,6.40393852 98.2804714,6.16619798 98.9097698,6.00671437 C99.6060927,5.83024472 100.190113,5.76861244 100.765863,5.75759424 C101.063846,5.75377493 101.328734,5.76450548 101.590823,5.7852754 C101.710198,5.79473549 101.822002,5.80582194 101.934323,5.81858227 L102.011856,5.82764628 L102.153025,5.84541617 L103.375128,5.96219468 L104.047953,6.02491251 C106.408666,6.24261441 108.247691,6.3859325 110.159139,6.49562972 L110.670029,6.52418893 L110.724221,6.51363816 C111.203278,6.42369508 111.67809,6.38014122 112.145204,6.37812241 L112.222985,6.37816969 C112.733492,6.38099592 113.138164,6.42541 113.584677,6.50073388 L113.745704,6.52888732 C114.160344,6.60397012 114.664738,6.71592526 115.618992,6.93633863 Z" id="Path" fill="#ED1E45" opacity="0.100000001" transform="translate(106.195627, 104.996128) rotate(90.000000) translate(-106.195627, -104.996128) "></path>
                <path d="M119.736139,4.8123156 C120.912893,5.08428525 121.927528,5.66619686 122.697383,6.45029274 C123.341078,7.10589422 123.859517,7.91523473 124.145211,9.02342689 C124.358072,9.84910387 124.397285,10.7356893 124.253796,11.6290369 L124.249171,11.6570793 L124.324882,11.702075 C126.270965,12.8669589 127.997441,14.1418102 129.690245,15.6678081 L129.882119,15.841895 L130.133991,16.073091 L130.297765,16.2250702 L130.577463,16.4877642 C131.176073,17.0542435 131.798217,17.6701798 132.659508,18.5397932 L132.882596,18.7654599 L132.936895,18.8134608 C133.273087,19.1136402 133.553927,19.39997 133.866489,19.8187989 C134.431974,20.5765398 134.845407,21.4758888 135.018345,22.5599177 L135.030682,22.6403385 L135.04181,22.7195487 L135.05714,22.7261577 C135.330457,22.8470889 135.599278,22.9805025 135.864795,23.1280843 L135.95318,23.1778052 C136.705389,23.6060429 137.385056,24.1345969 137.970543,24.7907245 C138.901073,25.8335255 139.369756,27.1197186 139.416802,28.4577336 L139.443736,28.4573532 L140.069638,28.5298724 L140.278447,28.5553653 C140.637581,28.6004992 140.85058,28.6355561 141.062089,28.6882188 L142.593229,28.7525549 L143.777317,28.8037708 C145.446609,28.8767872 147.179909,28.9559767 148.98877,29.0417729 L150.709803,29.124288 C152.117616,29.1924877 153.279085,29.5000072 154.547842,30.0013486 C155.179108,30.2507894 155.778817,30.596704 156.331894,31.10872 C156.331985,31.0284276 156.332809,30.9479477 156.334134,30.8673497 L156.336673,30.7386837 C156.370003,29.2907197 156.575397,28.0043551 157.205764,26.6111812 C157.829261,25.2331934 158.798811,23.9785192 160.244962,23.0208148 C162.007921,21.8533058 164.080722,21.4369506 166.067697,21.7353934 C167.402011,21.9358068 168.513457,22.4089973 169.496956,23.0456003 C170.088553,23.4285321 170.595639,23.8488281 171.06651,24.3102611 C171.629499,24.8619653 172.127815,25.4604183 172.626428,26.1434543 L172.714435,26.2648758 L172.850116,26.4550458 C173.931945,27.9847562 174.93986,29.735608 176.810499,33.2012889 L178.269361,35.9096532 C179.659178,38.4779724 180.289416,39.5769102 180.821153,40.3557724 L180.971595,40.5759844 L181.091304,40.7531501 C181.564162,41.4568346 181.974324,42.1147621 182.648425,43.2302309 L183.388232,44.4543956 L183.556934,44.7301579 L183.687949,44.9421794 C183.827251,45.1663574 183.947898,45.3561176 184.072326,45.5473309 L184.165441,45.6892122 L184.216592,45.7631077 L184.268097,45.8348038 C184.330165,45.9201112 184.414313,46.0325201 184.537089,46.1942797 L184.845615,46.6001047 L185.01611,46.8264218 L185.138278,46.9904261 C185.432547,47.3878839 185.648291,47.6987172 185.900206,48.0921702 L186.369921,48.8336979 L186.651539,49.2827064 L186.795083,49.513318 C187.663714,50.9130224 188.232088,51.9092701 188.832118,53.1098471 C189.40351,54.253124 189.67648,55.4442329 189.691462,56.6094644 C191.090966,59.0514231 190.487467,62.2473959 188.40781,64.5089339 C188.572145,65.1130933 188.705796,65.717602 188.80882,66.3395019 L188.832957,66.4891019 C188.950754,67.2391668 189.002975,67.9853452 188.933034,68.8313445 C189.157599,68.9162497 189.386827,69.0187731 189.62681,69.1467678 L189.839297,69.2672611 L189.941273,69.3271618 L189.999755,69.363061 L190.053698,69.3976356 C190.207852,69.4987051 190.355474,69.6156438 190.706233,69.8934983 L190.889624,70.0697918 L191.031117,70.2085785 L191.094564,70.2728214 L191.134184,70.3139849 C191.430549,70.6255614 191.564477,70.8549756 192.056475,71.6977567 C193.02459,73.7692226 192.676849,76.2808226 191.271164,78.314057 C190.497703,79.4328198 189.644814,80.1443942 188.724103,80.6969743 C188.065509,81.0922398 187.547776,81.3042462 186.999122,81.4777688 L186.933125,81.4984161 C186.765264,81.5503739 186.613067,81.5932783 186.468273,81.629858 L186.610492,82.0635582 L186.88695,82.9001299 L186.913502,82.9490839 C186.959778,83.0347558 187.004977,83.1206309 187.050283,83.2095201 L187.095669,83.2995181 C187.329572,83.7683153 187.532658,84.2526417 187.704419,84.7983264 C187.868559,85.3197977 188.036183,85.9975514 188.140325,86.5813764 C188.18396,86.825996 188.220165,87.0700161 188.247753,87.3334196 L188.262132,87.4793928 C188.308998,87.9891941 188.318329,88.4918351 188.251838,89.1272085 C188.158426,90.0198248 187.946101,90.9050576 187.435431,91.9219437 C186.955558,92.8775045 186.276236,93.7776222 185.319117,94.5539974 C185.012441,94.8027601 184.688222,95.0281795 184.349278,95.2285956 C185.919592,96.144 187.05298,97.5087109 187.016088,100.210876 C186.988151,102.257196 186.278974,103.801978 185.222321,104.965973 C185.218617,105.010252 185.21467,105.054609 185.210363,105.099055 L185.193078,105.260955 L186.162285,107.176317 L186.959535,108.760416 L187.83713,110.514689 C188.992957,112.833291 189.991184,114.870426 190.657061,116.281175 L190.809823,116.606315 L190.954635,116.918521 L191.081658,117.196828 C191.603206,118.348915 192.036977,119.427331 192.708392,121.196131 L193.451692,123.164692 L193.72085,123.868142 L193.855519,124.214745 C194.060642,124.739056 194.230501,125.155135 194.411089,125.577439 L194.713804,126.275735 L195.210086,127.407262 C195.888447,128.943805 196.613361,130.544128 197.712995,132.942515 L200.373732,138.741633 L200.831789,139.749677 L201.29799,140.781442 L201.418031,141.042622 C201.518479,141.262418 201.586326,141.416372 201.672237,141.622874 C201.849543,142.049061 202.003603,142.473253 202.138184,142.933676 C202.46675,144.057755 202.567494,145.278817 202.385887,146.50983 C202.236059,147.525425 201.904466,148.55072 201.28121,149.574802 C200.30876,151.17265 198.778212,152.45942 196.819325,153.081385 C195.118889,153.621289 193.331983,153.573201 191.714923,153.009195 C190.586041,152.615458 189.695612,152.043468 188.945886,151.367799 C188.587536,151.044846 188.299615,150.731963 188.04093,150.41175 L187.965173,150.316737 C187.904767,150.23993 187.850675,150.168494 187.79914,150.098278 L187.77056,150.058923 L187.120737,149.228409 L186.930343,148.983383 C186.257309,148.114549 185.849785,147.556645 185.36574,146.827497 L185.10066,146.427347 L184.810844,145.987731 C183.416797,143.867279 182.351686,142.158684 181.355901,140.409924 L180.594938,139.059983 L179.943178,137.892661 C178.992769,136.182852 177.995648,134.355715 176.557917,131.698365 L175.912486,130.504293 L175.892614,130.508852 C175.681742,130.555519 175.466732,130.594453 175.24775,130.62526 L175.165446,130.636431 C173.964164,130.79354 172.826585,130.676834 171.779322,130.366081 C171.061998,130.153231 170.435654,129.865143 169.865585,129.524076 C169.194929,129.122829 168.678251,128.700669 168.20099,128.234293 C167.946735,127.985838 167.731516,127.750664 167.517408,127.499794 C167.472508,127.447185 167.429438,127.395937 167.386134,127.343751 L167.236087,127.160526 L167.169893,127.090339 C166.772563,126.667688 166.383168,126.24951 166.001117,125.835013 L165.763515,125.576581 L165.845895,125.860413 C166.021633,126.46637 166.197436,127.075098 166.373329,127.686662 L166.415466,127.746809 C166.516262,127.89337 166.637301,128.087382 166.839314,128.411186 L166.96716,128.669567 L167.012049,128.764056 C167.108444,128.971991 167.153675,129.110256 167.300461,129.558967 L167.369691,129.877395 L167.401793,130.035938 L167.415873,130.111914 L167.431793,130.20708 C167.481788,130.527866 167.488485,130.822129 167.50734,131.650498 L167.507125,131.652321 L169.211542,137.572841 L169.645901,139.088149 C171.800992,146.624384 172.980581,151.041862 174.131387,156.062126 L174.244285,156.556959 C176.035031,164.442433 177.139965,171.581689 177.538379,178.583589 C177.653251,180.602401 177.015505,182.67869 175.55907,184.340258 C174.311088,185.764014 172.781132,186.558621 171.21111,186.897816 C169.701375,187.223986 168.46079,187.103073 167.287905,186.774682 C166.576265,186.575432 165.891342,186.281414 165.256438,185.902607 C164.238944,185.295532 163.314462,184.497434 162.522533,183.239879 L162.146534,182.641148 L161.829688,182.133557 C160.567608,180.105155 159.684221,178.601376 158.823004,176.977781 L158.490054,176.347112 L158.123178,175.64976 L157.805896,175.044624 C157.489481,174.44015 157.174441,173.835297 156.84974,173.20875 L156.391933,172.323135 L156.345694,172.349388 C156.209761,172.425677 156.070934,172.498732 155.929246,172.568406 L155.84389,172.609803 C155.003358,173.011827 154.143367,173.259344 153.288481,173.36868 L153.25312,173.372959 L153.246039,173.408437 C153.09267,174.172634 152.84591,174.923753 152.440916,175.688885 L152.386884,175.789217 L152.355408,175.889139 C152.080452,176.752937 151.745669,177.594937 151.349706,178.406778 L151.289852,178.528328 C150.407947,180.302304 148.913311,181.720046 147.037934,182.489581 C146.420943,182.742754 145.811581,182.910888 145.212263,183.007871 L145.094129,183.026024 L145.092131,183.031058 C145.057746,183.121281 145.021551,183.211889 144.983481,183.302906 L144.944785,183.394059 C143.9475,185.709198 141.938002,187.546388 139.287847,188.204314 C139.048666,188.263693 138.806106,188.312855 138.560686,188.351378 C137.530874,188.513028 136.503672,188.480266 135.521159,188.273386 L135.485712,188.265711 L133.896757,189.343997 L133.677233,189.074533 L133.614076,188.992385 L133.482485,188.814012 L132.660015,187.674169 L132.650043,187.684127 C132.172351,188.157101 131.644664,188.559324 131.084117,188.890728 L131.013878,188.931785 C130.185074,189.410747 129.368915,189.694857 128.56047,189.856315 C127.668065,190.034541 126.900637,190.046766 126.15845,189.974129 C125.72889,189.932088 125.33004,189.860321 124.948899,189.766397 C124.326479,189.613015 123.709499,189.388177 123.121346,189.093992 C122.723473,188.894982 122.32783,188.660056 121.928373,188.36976 C121.274131,187.894304 120.661843,187.316649 120.099421,186.538285 L119.549953,185.77342 L119.176295,185.247589 C118.474957,184.256014 117.752868,183.208934 116.728959,181.705347 L115.623648,180.078326 L115.60751,180.099523 C113.96743,182.242392 111.317971,183.538761 108.398879,183.288815 L108.304622,183.280215 C106.656546,183.120592 105.246792,182.566164 103.994948,181.762152 C103.609719,181.514733 103.266479,181.260997 102.929056,180.986695 L102.847443,180.919934 L102.753381,180.841807 C102.676475,180.777362 102.601716,180.713292 102.517469,180.640015 L102.243399,180.399847 L102.057436,180.257535 C100.771351,179.268467 99.5475481,178.25964 98.3826738,177.223527 L97.1307252,176.099407 C96.4215415,176.597478 95.6202487,176.989659 94.7408494,177.24667 L94.6814084,177.263608 L94.6808244,177.27249 C94.5982312,178.532381 94.4139941,179.783809 94.1207331,181.031468 L94.0636083,181.268702 L94.0956383,181.31974 C94.3775053,181.770329 94.6146749,182.211514 94.8499335,182.766959 L94.8891329,182.860613 C95.5206818,184.387327 95.7912396,186.079329 95.4679115,187.927455 C95.2712717,189.051438 94.8492984,190.175488 94.0734836,191.260628 C93.0058072,192.753997 91.4493654,193.855525 89.639616,194.349893 C88.2057619,194.741578 86.8533582,194.70823 85.6110242,194.409319 C84.872542,194.23103 84.2434089,193.976533 83.6666444,193.669629 C83.051004,193.342039 82.5794031,193.004128 82.1316096,192.62768 C81.901144,192.433935 81.7019068,192.249343 81.5043451,192.054711 C81.4447682,191.996017 81.3876196,191.938585 81.3300536,191.879845 L81.1529657,191.69675 L81.1386227,191.682743 C80.8210851,191.367124 80.5455543,191.051325 80.2888105,190.723147 L80.2192379,190.633327 L80.1552723,190.548906 L79.9836005,190.41902 C79.8828835,190.342022 79.7934476,190.272062 79.6948935,190.193022 L79.6077097,190.122673 C79.2049798,189.795899 78.8287622,189.457526 78.4553516,189.070235 L77.3021724,187.87267 L76.1769542,186.701248 L75.1200646,185.59841 C73.8238295,184.244332 72.5102148,182.866663 71.168783,181.454608 L70.0895572,180.317304 L70.0303494,180.275664 C68.9373238,179.504296 67.8608369,178.736079 66.764747,177.944836 L66.268102,177.585553 L66.2545459,177.5928 C65.3463812,178.068097 64.3754118,178.357475 63.3934912,178.4721 L63.3296077,178.479144 L63.3303592,178.560237 C63.3332303,179.064399 63.2922615,179.580351 63.2001286,180.10566 L63.1810176,180.210846 C62.887256,181.77346 62.1729468,183.302901 60.867743,184.604194 C59.4388922,186.028764 57.628586,186.793935 55.7924265,186.939085 C54.6149262,187.032168 53.5717184,186.872159 52.6145526,186.560809 C51.5738266,186.222278 50.6839829,185.712646 49.9275765,185.101622 L49.3018304,184.589637 L49.1088406,184.430501 L48.9247002,184.27716 C48.0548956,183.548748 47.4695525,182.995773 46.7969273,182.217443 L46.1403316,181.449764 L45.5687873,180.777964 C44.7386781,179.79968 44.0299915,178.952576 43.4291011,178.220596 L43.3447077,178.117429 L43.3107392,178.122762 C43.0791967,178.157789 42.8449909,178.182883 42.6086541,178.197691 L42.519929,178.202761 C41.1074639,178.275693 39.8128278,177.982053 38.6741272,177.447721 C37.9341956,177.10051 37.3224269,176.683492 36.7865562,176.217971 C36.1936118,175.70287 35.7710186,175.203909 35.3985126,174.672506 C35.2057196,174.397475 35.0475131,174.141189 34.8997604,173.879742 C34.8324634,173.760661 34.7713595,173.647406 34.7113773,173.53237 L34.6701938,173.452764 L34.5963048,173.306841 L33.9245869,172.072293 L33.3545758,171.031727 C32.1421928,168.82691 31.1530377,167.086325 30.0964963,165.308172 L29.7981649,164.807779 L29.754772,164.765224 C29.3740565,164.386461 29.0361548,163.975724 28.739051,163.540007 L28.6899111,163.467157 C28.3695612,162.987064 28.1521071,162.573819 27.9349358,162.097452 L27.8574726,161.924892 L27.7768367,161.739434 C27.5975018,161.320593 27.3826389,160.778006 27.0255126,159.855468 C26.4970025,158.490208 26.3520904,157.034085 26.5508042,155.652963 C26.7169536,154.498174 27.1037021,153.341513 27.9122075,152.170755 C28.5145978,151.298463 29.2859459,150.546185 30.1835225,149.96635 L30.2117771,149.948266 L30.2024437,149.838308 C29.9700169,147.005243 29.98088,144.297426 30.2396946,141.420108 L30.2700367,141.093071 L30.3122709,140.661618 L30.3623859,140.180061 C30.4832338,139.054898 30.6340619,137.895828 30.8692706,136.215838 L30.9254622,135.816865 L30.9329122,135.725334 C30.9731869,135.25571 31.0297689,134.83038 31.1444187,134.335472 C30.8217007,134.265141 30.5074061,134.181859 30.1840175,134.075533 C29.2763864,133.777115 28.4372924,133.275438 27.7536836,132.573451 C27.1897013,131.994306 26.7237058,131.284667 26.4256771,130.37349 C25.9606705,128.951805 26.0146391,127.288981 26.7395474,125.640487 C27.3688131,124.209491 28.4238957,122.99377 29.7117475,122.137206 C30.6108068,121.539231 31.4872398,121.189919 32.3493592,120.98663 C32.7614318,120.889463 33.1266876,120.836387 33.4798747,120.807 L33.5840991,120.798972 C33.6469301,120.79454 33.705792,120.791154 33.7627138,120.788536 L33.8606297,120.78478 L34.7645661,120.723189 C34.8425557,120.718028 34.9181769,120.713102 34.9916622,120.708407 L34.3810508,119.719536 L33.519027,118.317982 L32.6754393,116.942757 C31.5965554,115.181737 30.4776646,113.347109 29.3105947,111.425722 L28.5156357,110.115829 C27.6511489,108.690174 27.1638369,107.311613 26.7802368,105.672477 C26.6088767,104.94025 26.5241679,104.170153 26.5785938,103.332219 C24.8067478,102.379229 23.1103012,101.387418 21.4734159,100.344216 C20.1157515,99.4789629 19.1527324,98.0652864 18.9243877,96.2784043 C18.7287248,94.7472701 19.0972842,93.3152006 19.7802242,92.0685108 C20.4369397,90.8696931 21.2254533,90.0666264 22.1079226,89.4075775 C22.643355,89.0077041 23.2241143,88.6706975 23.8304563,88.4080354 C24.4934981,88.1208114 25.1886269,87.9052199 25.9632094,87.8098779 L21.3243129,80.5354054 L21.300261,80.496865 L21.1618625,80.2612938 L21.1104558,80.1654922 C21.0695553,80.0861447 21.0053417,79.9568211 20.8752837,79.6948895 L20.7996491,79.5272383 L20.7647239,79.4442071 C20.723173,79.3419333 20.6735988,79.2076213 20.5613372,78.9034695 L20.5105265,78.7477988 C20.4289509,78.4944295 20.4080109,78.3988444 20.2704046,77.7707135 L20.2364167,77.5624487 L20.2183456,77.4409549 C20.1854134,77.2023667 20.1762578,77.0051254 20.1435829,76.3012019 L20.1484117,76.1161884 C20.1550015,75.978739 20.1724837,75.7912672 20.2295685,75.1791147 L20.2690066,74.9559527 L20.2774048,74.9072088 L20.2981662,74.8140186 C20.3225662,74.7088869 20.3547241,74.5846221 20.4098081,74.3869902 L20.6384625,73.5788842 L21.0858796,72.5819619 L21.7814872,71.4984849 L22.7657425,70.4258165 L24.0080335,69.5005173 L25.3900224,68.8378121 L26.7547946,68.4709655 L27.9816565,68.3517403 L29.0182446,68.3986964 L29.8650127,68.5387617 L30.5473642,68.7216156 L31.0965723,68.9174255 L31.3303629,69.0148358 L31.7894517,69.2387106 L31.8941936,69.2911229 L31.9710213,69.3305223 C32.1765525,69.4374266 32.288885,69.5096232 32.5643858,69.6866888 L32.9527603,69.9693515 L33.0335711,70.0290157 C33.2707728,70.205255 33.3415241,70.2696664 33.5648464,70.4729773 L33.7904367,70.689838 L33.8389416,70.7381937 L33.8961807,70.7600251 C34.5539583,71.0135996 35.0236772,71.2778737 35.4862545,71.5888729 L35.5871847,71.657304 L35.9458579,71.882987 L36.0746692,71.9652249 C36.1989845,72.0452184 36.3112433,72.1195037 36.4243315,72.1973061 C36.4868831,71.315127 36.7248279,70.4068671 37.1549659,69.5144198 L36.6275615,68.7335112 L36.4158659,68.4619443 C35.6027064,67.4172324 34.792437,66.3663875 34.0093334,65.3381114 L33.4925156,64.6575949 C30.810083,61.1160418 29.0365994,58.6244181 28.1351703,56.9678717 L28.0796314,56.8647955 C27.9306353,56.5854327 27.7984286,56.3136359 27.6632757,55.9815082 C27.5196884,55.6286531 27.3942138,55.2618919 27.2852862,54.8131526 C27.185787,54.4032543 27.1121649,53.970474 27.0772249,53.4787551 C27.0140213,52.5892752 27.0810465,51.6594305 27.3893801,50.6218653 C28.5417959,46.7439013 32.3013703,44.4684018 36.0967322,44.9634806 C37.0196263,45.0838658 37.7837433,45.33399 38.4807509,45.6625777 C38.8751182,45.8484928 39.2129905,46.0449486 39.5252939,46.2536356 C40.0626795,46.6127269 40.4139708,46.9190365 40.7715175,47.2746165 L40.8203307,47.3234196 C41.1659814,47.6707645 41.4519215,48.0040769 41.8161498,48.459318 L41.9917668,48.6804189 L42.1241683,48.8490672 C42.5988568,49.4568296 43.1823693,50.2352596 43.5707401,50.7745565 L43.6897092,50.9409804 L43.7835428,51.0744893 L43.8658138,51.1935249 C44.1489788,51.6067141 44.3864361,51.9905889 44.7204867,52.5580203 L45.115752,53.232866 L45.2333136,53.4298661 C45.3171881,53.5685102 45.3690997,53.6488199 45.4135807,53.711837 L45.5575127,53.9129237 L45.6898064,54.0927857 L45.8052632,54.2464168 C45.946484,54.4327258 46.1129125,54.6469342 46.3295742,54.9220625 L47.1746871,55.9908635 L47.4265294,56.3124095 L47.611469,56.5507526 C47.7303421,56.7047168 47.8408454,56.8494675 47.9457986,56.988898 C48.325476,56.9048286 48.7232964,56.8481139 49.1476175,56.8259352 L48.4603898,55.8041128 C47.9584505,55.0621226 47.4601637,54.3409809 46.6795856,53.2243288 L44.7643349,50.4883498 L44.1577286,49.6158535 L43.8990013,49.2413363 C43.5368572,48.7158242 43.2201306,48.2503828 42.8872976,47.7551804 L42.2172275,46.7554498 L42.0280101,46.4713966 C41.024746,44.961363 40.4513223,44.0300482 39.8253661,42.8402764 L39.7869725,42.7671032 C39.6025973,42.4147661 39.4391399,42.0552889 39.2811447,41.594483 C39.1157547,41.1121095 38.985389,40.6015159 38.9075418,39.9881018 L38.8761427,39.684162 L38.8629384,39.5366257 L38.8559843,39.4383525 C38.8403972,39.1822566 38.8480567,38.9561997 38.8690822,38.3356638 L38.9069877,38.0151095 L38.938723,37.7655584 L38.9575658,37.6332148 C39.0436697,37.0602355 39.1551597,36.762934 39.6033583,35.5677594 C40.8291765,32.9566932 43.3160557,31.2723124 46.0685571,31.0033012 C47.5830879,30.8552811 48.7837462,31.112565 49.886053,31.5639464 C50.7060826,31.8997387 51.247706,32.2468403 51.7844176,32.6622221 C52.3243014,33.080059 52.6464172,33.4039157 53.0707491,33.8709264 C53.4965733,34.3395794 53.9563705,34.8979943 54.307497,35.3981566 L54.3683034,35.4857857 L54.4981191,35.6764822 C54.8498674,36.1971023 55.1362825,36.6549709 55.5680016,37.375599 L56.2074012,38.4480843 L56.3683487,38.7143209 L56.4698229,38.8798069 C56.5982165,39.0876382 56.7008902,39.2472323 56.800672,39.3949395 L56.875111,39.5037127 L56.9189436,39.5113594 C56.9936422,39.5246284 57.0680276,39.5388528 57.1420943,39.5539941 L57.2160546,39.5694397 C58.4361728,39.8296144 59.2234763,40.2258739 60.0071377,40.746709 C60.2998013,40.9412184 60.5391734,41.1248823 60.7672315,41.3160654 C60.9714636,41.4872749 61.1464834,41.6479769 61.3216465,41.8185209 L61.3873967,41.8829761 C61.7257364,42.2168181 62.0838628,42.6043489 62.5570178,43.1351864 L62.8322094,43.4455051 L63.6043962,44.3239254 C64.295414,45.1051143 64.9502614,45.8934935 65.5693258,46.692809 C66.2908809,46.490113 67.0069155,46.3025212 67.7182866,46.1302477 L69.1552557,45.7888318 C69.2430723,45.0642978 69.4514467,44.3254962 69.7910877,43.5958339 L69.8143228,43.5467173 L69.8089737,43.5421553 C69.0501284,42.8952637 68.3549633,42.1818989 67.7247065,41.394751 L67.6056491,41.2441357 L67.5546297,41.2424437 C67.1047272,41.2268751 66.6864647,41.1847355 66.1961834,41.0877947 L66.1137852,41.0711257 C64.7748331,40.794215 63.5370464,40.1897985 62.5397925,39.1007826 C61.9332885,38.4384714 61.455909,37.6199845 61.2062619,36.5745164 C60.8626974,35.1357434 61.0500432,33.5416737 61.7711088,32.0562418 C62.342405,30.8793426 63.1389848,29.9578093 64.0424006,29.2368386 C64.5798073,28.8085548 65.1032965,28.4917114 65.6303007,28.2356839 C66.1158055,27.9998175 66.5447248,27.8418998 66.9729757,27.7168563 L66.9596,27.6939119 L66.8782371,27.5502199 L66.8119431,27.4298718 C66.7041651,27.2316016 66.6080727,27.0401139 66.4955625,26.783897 C66.4155904,26.6017785 66.3389253,26.4109291 66.261599,26.1892427 C66.0951371,25.7120141 65.9641707,25.2238546 65.8802419,24.5820617 L65.862018,24.4363751 C65.5782732,22.0582496 65.9862159,19.7498324 68.5543656,17.5095469 C71.7341314,14.7357275 74.9052888,15.0869626 77.5120619,16.4476656 C78.208595,16.8112471 78.6863816,17.1686107 79.1383091,17.5712221 C79.3352744,17.7466938 79.4978855,17.9075889 79.6498188,18.0688748 C79.8059035,18.2345677 79.9304974,18.3791012 80.0515719,18.5273188 C80.1692385,18.6713647 80.2721696,18.8054686 80.3827821,18.9547259 L80.9135252,19.6735996 C81.8268797,20.9156967 82.6869929,22.1126631 83.9324925,23.871064 L84.2228869,24.2826479 C84.6069265,24.1494817 84.9925075,24.0165002 85.3811353,23.8831894 L85.8957295,23.707195 L85.8988631,23.6944097 C86.1153146,22.8426515 86.4867356,22.0343879 86.9762563,21.3003239 L87.0083688,21.2527593 L86.9560476,21.2153266 C86.631794,20.9813562 86.3251263,20.7114891 86.0418002,20.4017888 L85.9854479,20.3393164 C85.1539417,19.404415 84.5847335,18.193623 84.5002347,16.6801528 C84.407731,15.0233057 84.9558315,13.4107454 85.9154968,12.070455 C86.5309151,11.2109478 87.2313031,10.5629506 87.9792108,10.0454073 C88.7924106,9.48268256 89.6286055,9.10459043 90.4531894,8.86641658 L91.1395011,8.67243081 L91.3519584,8.61317903 L91.5769748,8.55156218 C92.5305359,8.29336811 93.2162469,8.14797832 94.0933328,8.04691576 L94.960944,7.95122355 L95.9247523,7.84769577 L96.852892,7.75126124 C97.4875029,7.68661562 98.0621061,7.63096934 98.5814178,7.58381967 L98.6958106,7.57362468 L98.7118697,7.54759025 C98.8221839,7.37075066 98.9403806,7.19671438 99.0663813,7.02601584 L99.1139972,6.96216139 C99.8769989,5.94926757 100.807023,5.18958721 101.801676,4.65061108 C102.448004,4.30038256 103.065536,4.07163545 103.670595,3.91818157 C104.340098,3.74838385 104.901622,3.68907602 105.455193,3.67846299 C105.741697,3.67478575 105.996381,3.68510544 106.248375,3.70508429 C106.36315,3.71418408 106.470648,3.72484875 106.578642,3.7371239 L106.653188,3.74584332 L106.788918,3.76293781 L107.963942,3.87527284 L108.610848,3.93560395 C110.88062,4.14502079 112.648801,4.28287984 114.486615,4.38839016 L114.977824,4.41585912 L115.029929,4.40570703 C115.490533,4.31916241 115.947056,4.27725013 116.396176,4.27529991 L116.47096,4.27534409 C116.961802,4.27805468 117.350885,4.32077981 117.780196,4.39324332 L117.93502,4.42032777 C118.333686,4.49255987 118.818648,4.6002663 119.736139,4.8123156 Z" id="Path" fill="#009AFF" opacity="0.300000012"></path>
                <path d="M86.0381227,0 C87.3184269,0 88.5051048,0.359004379 89.4871039,0.985401189 C90.3081769,1.50914667 91.0364902,2.22167698 91.5955833,3.29861882 C92.0121449,4.10101223 92.2638475,5.00781937 92.3284401,5.96524942 L92.3303429,5.99533223 L92.419267,6.02374724 C94.7069481,6.76271969 96.7939848,7.66777832 98.9060665,8.84040686 L99.145732,8.9744776 L99.460975,9.15323414 L99.6663477,9.27117085 L100.017836,9.47583082 C100.771109,9.91824772 101.560472,10.4061514 102.65729,11.0990819 L102.941484,11.2789991 L103.009006,11.3156336 C103.42778,11.5455373 103.786079,11.7743491 104.208709,12.1325054 C104.973326,12.7804779 105.614617,13.611099 106.051483,14.6900011 L106.083383,14.7701593 L106.113747,14.849355 L106.131157,14.8525232 C106.442285,14.9122134 106.751743,14.9858764 107.061162,15.0749693 L107.164303,15.1052405 C108.043303,15.368118 108.871268,15.7519852 109.632341,16.2901762 C110.841935,17.1455375 111.632447,18.3627169 111.999777,19.7341482 L112.027508,19.7273223 L112.691303,19.6527766 L112.913064,19.6292498 C113.29478,19.5901175 113.523145,19.5754736 113.754167,19.5793786 L115.35107,19.2801774 L116.586363,19.050305 C118.328038,18.7270784 120.137298,18.3949442 122.026184,18.0515904 L123.823565,17.7258225 C125.293999,17.4600681 126.566984,17.5004548 127.996962,17.7155077 C128.708444,17.8225066 129.410309,18.0367358 130.103575,18.4337465 C130.084542,18.3507529 130.066222,18.2673903 130.048391,18.1837862 L130.020363,18.05022 C129.709865,16.5459745 129.615593,15.167627 129.934851,13.5774087 C130.250629,12.0045242 130.953235,10.4764201 132.218884,9.14136898 C133.7618,7.51384786 135.803699,6.5885481 137.92722,6.42239831 C139.35323,6.31082368 140.614009,6.53435709 141.781553,6.95731433 C142.483859,7.21173308 143.107769,7.52494713 143.704072,7.8893201 C144.41703,8.32497625 145.074321,8.82438733 145.752069,9.41113298 L145.871899,9.51558772 L146.057351,9.67969914 C147.539217,11.002084 148.997412,12.5706431 151.755249,15.7052128 L153.90734,18.1555381 C155.954751,20.4776349 156.867532,21.4627257 157.602322,22.1405845 L157.810177,22.3322151 L157.976034,22.4867027 C158.632096,23.1009373 159.212497,23.6828613 160.174526,24.6745588 L161.230317,25.762887 L161.470267,26.0075607 L161.656103,26.1953674 C161.853396,26.3937569 162.023221,26.5610354 162.197299,26.7289123 L162.327279,26.8532899 L162.397718,26.9174349 L162.467999,26.9792225 C162.552433,27.052553 162.66613,27.1486161 162.831484,27.2864511 L163.246847,27.6321334 L163.47687,27.8252837 L163.642131,27.9655836 C164.040774,28.3060244 164.337669,28.5757045 164.691609,28.9221226 L165.35344,29.5762137 L165.751296,29.972947 L165.954503,30.1769719 C167.185178,31.4159307 168.009596,32.3096793 168.915387,33.4070158 C169.777947,34.4519796 170.343648,35.6176443 170.6367,36.8181834 C172.664016,39.0073892 172.801965,42.4541521 171.192533,45.2878495 C171.506202,45.8729224 171.788258,46.4656846 172.042821,47.0837333 L172.103391,47.2325608 C172.403745,47.9795232 172.635437,48.7381309 172.764722,49.6290669 C173.01691,49.6631724 173.27811,49.7143705 173.556489,49.7893211 L173.804679,49.8630869 L173.924283,49.9006316 L173.993244,49.9237614 L174.057201,49.9466063 C174.240508,50.014232 174.420849,50.0998164 174.849352,50.303171 L175.08078,50.4415483 L175.259995,50.5511735 L175.340835,50.6024073 L175.391567,50.6354819 C175.771916,50.886675 175.964905,51.0917592 176.673874,51.8451607 C178.167334,53.7545389 178.406438,56.4330074 177.438795,58.8698162 C176.906361,60.210641 176.194885,61.1496588 175.375477,61.9405744 C174.789347,62.5063234 174.305062,62.8490558 173.779671,63.1594051 L173.716417,63.1965037 C173.555404,63.2902858 173.408414,63.3709715 173.267564,63.4433532 L173.517782,63.8575604 L173.517782,63.8575604 L174.002631,64.6560232 L174.041719,64.7002695 C174.109927,64.7777483 174.177072,64.8556943 174.245045,64.9367293 L174.313365,65.0188913 C174.666648,65.4474696 174.991798,65.8994555 175.299207,66.4223288 C175.592975,66.9220009 175.927573,67.5823384 176.174221,68.1607744 C176.277565,68.403136 176.373092,68.6466526 176.464335,68.9122577 L176.51396,69.0596681 C176.683813,69.5752891 176.813188,70.0924758 176.895862,70.764933 C177.012007,71.7096473 177.003563,72.6751319 176.718309,73.8479173 C176.450257,74.9499758 175.962979,76.0423756 175.159275,77.0732501 C174.901756,77.4035583 174.620556,77.713934 174.318188,78.0019888 C176.158294,78.5729015 177.654111,79.7124668 178.2597,82.5136192 C178.718305,84.6349009 178.353758,86.400609 177.539578,87.8558104 C177.5463,87.902452 177.552789,87.9492315 177.558929,87.9961899 L177.579641,88.1676202 L179.037042,89.9154247 L180.23791,91.3619795 L181.562308,92.9651986 C183.308535,95.0851293 184.824921,96.9518388 185.848794,98.2506348 L186.084041,98.5501415 L186.307995,98.8381807 L186.5055,99.0954377 C187.318672,100.16141 188.023626,101.172217 189.138513,102.83969 L190.375239,104.696422 L190.820835,105.359064 L191.042507,105.685071 C191.379285,106.177889 191.653856,106.567285 191.940992,106.960553 L192.420023,107.609854 L193.2022,108.660615 C194.268934,110.086421 195.398948,111.567018 197.106136,113.782816 L201.235956,119.139994 L201.949233,120.072279 L202.676574,121.027133 L202.862786,121.268359 C203.018902,121.4715 203.125658,121.614388 203.263591,121.807263 C203.548261,122.205326 203.808445,122.60688 204.057139,123.050526 C204.664301,124.133646 205.059238,125.371396 205.164894,126.686864 C205.252061,127.772134 205.153785,128.910841 204.75395,130.117951 C204.130097,132.001375 202.85566,133.696629 200.980406,134.807194 C199.352569,135.771233 197.495345,136.14831 195.690662,135.951687 C194.4308,135.814423 193.374782,135.436007 192.439406,134.916848 C191.992318,134.668702 191.62038,134.414142 191.276894,134.145026 L191.176008,134.064935 C191.095316,134 191.022424,133.939091 190.952466,133.878839 L190.91357,133.844996 L190.0445,133.141965 L189.789465,132.934234 C188.887291,132.197147 188.333442,131.717955 187.659758,131.080079 L187.290624,130.729884 L186.886539,130.344814 C184.941447,128.486541 183.434238,126.97531 181.98907,125.406015 L180.881464,124.192766 L179.93016,123.142149 C178.541142,121.602268 177.075924,119.9523 174.957813,117.549645 L174.006675,116.469874 L173.987233,116.479331 C173.780532,116.577918 173.567714,116.669502 173.348858,116.753637 L173.266504,116.784838 C172.063076,117.234094 170.860222,117.385183 169.704435,117.314179 C168.912777,117.265545 168.197174,117.117434 167.527079,116.901135 C166.738748,116.646672 166.104486,116.333823 165.500405,115.965868 C165.17859,115.769845 164.900259,115.578224 164.619338,115.370118 C164.560426,115.326476 164.503729,115.283805 164.446567,115.24022 L164.247931,115.086716 L164.162836,115.029996 C163.651736,114.688135 163.149898,114.349002 162.656523,114.011918 L162.349531,113.801609 L162.502237,114.075237 C162.828113,114.659444 163.154715,115.2465 163.482086,115.836464 L163.539938,115.888554 C163.678968,116.015933 163.850211,116.187512 164.136013,116.473874 L164.32962,116.710345 L164.398497,116.797266 C164.547601,116.989118 164.627258,117.121195 164.885769,117.549822 L165.033134,117.862343 L165.104061,118.01851 L165.136703,118.093658 L165.175818,118.188198 C165.303875,118.507749 165.380891,118.810232 165.597697,119.661743 L165.597909,119.663678 L168.768827,125.374708 L169.578463,126.836847 C173.599788,134.109876 175.870543,138.393051 178.255159,143.306002 L178.489653,143.790384 C182.217825,151.511325 185.059833,158.624938 187.139328,165.765351 C187.738895,167.824099 187.574744,170.121992 186.466143,172.186852 C185.516211,173.956179 184.125144,175.142705 182.584204,175.86819 C181.102436,176.565817 179.792181,176.73716 178.502433,176.677931 C177.719886,176.641995 176.942361,176.501746 176.196305,176.261932 C175.00068,175.877608 173.855625,175.273671 172.738041,174.163287 L172.20703,173.634375 L171.758831,173.185518 C169.971981,171.390848 168.701272,170.047867 167.424921,168.575775 L166.930769,168.003578 L166.385688,167.370576 L165.913802,166.821022 C165.442969,166.271945 164.973466,165.722149 164.488816,165.152242 L163.804962,164.346411 L163.763454,164.384583 C163.641216,164.495883 163.515219,164.604532 163.38546,164.710371 L163.307154,164.773536 C162.534703,165.389721 161.705345,165.850891 160.848343,166.16805 L160.812837,166.180917 L160.813974,166.21927 C160.837596,167.045599 160.761636,167.880718 160.525566,168.76811 L160.493655,168.884694 L160.484944,168.995468 C160.4067,169.953761 160.261467,170.903816 160.045853,171.837319 L160.012982,171.97722 C159.524614,174.021024 158.31847,175.843044 156.56463,177.086159 C155.987625,177.495138 155.398242,177.814418 154.802285,178.057774 L154.684584,178.104747 L154.683719,178.110426 C154.669694,178.211872 154.65389,178.314148 154.636248,178.417294 L154.617991,178.520732 C154.139355,181.151314 152.501307,183.529746 149.920581,184.842568 C149.687667,184.961053 149.448828,185.069786 149.2045,185.168209 C148.179272,185.581205 147.110429,185.792678 146.046268,185.813549 L146.007826,185.814083 L144.623392,187.307847 L144.332447,187.08182 L144.24764,187.012014 L144.069224,186.859116 L142.948134,185.877666 L142.940205,185.890338 C142.559447,186.493184 142.110193,187.034858 141.610125,187.511199 L141.547354,187.570401 C140.805343,188.263291 140.029978,188.751807 139.233365,189.111735 C138.354019,189.509043 137.564223,189.704962 136.780284,189.807158 C136.32656,189.866307 135.897475,189.887403 135.481405,189.881373 C134.801944,189.871526 134.11108,189.786539 133.433474,189.623006 C132.975086,189.512379 132.510448,189.364106 132.02868,189.159524 C131.239625,188.824455 130.469562,188.373756 129.703195,187.703742 L128.953425,187.044581 L128.442197,186.590444 C127.481549,185.733279 126.486244,184.823714 125.070429,183.514492 L123.541127,182.097156 L123.529508,182.122915 C122.345864,184.728998 119.917944,186.701404 116.843153,187.140288 L116.743743,187.153913 C115.003352,187.382575 113.415086,187.146338 111.930478,186.614474 C111.47362,186.450804 111.05863,186.270577 110.644749,186.067708 L110.544544,186.01821 L110.428773,185.959941 C110.333981,185.911713 110.241497,185.86336 110.13702,185.807758 L109.796709,185.625032 L109.57072,185.522384 C108.006659,184.807467 106.502225,184.057257 105.052161,183.264774 L103.49119,182.402146 C102.877293,183.086213 102.143028,183.682856 101.295884,184.158472 L101.23852,184.190172 L101.240033,184.19949 C101.454843,185.521152 101.562646,186.858344 101.556936,188.21768 L101.554442,188.476473 L101.599685,188.521565 C101.998174,188.919873 102.348253,189.319137 102.723577,189.836931 L102.786377,189.924348 C103.802416,191.351178 104.484946,193.035028 104.591218,195.02205 C104.65585,196.230506 104.487742,197.492849 103.944867,198.79949 C103.197763,200.59769 101.852451,202.107706 100.100852,203.050797 C98.7130707,203.798003 97.3081734,204.086539 95.9537105,204.074729 C95.1484308,204.066495 94.4379484,203.953761 93.7690756,203.774365 C93.0551186,203.582877 92.4874871,203.346322 91.9352674,203.064259 C91.651057,202.91909 91.4012842,202.775923 91.1508504,202.621979 C91.0753292,202.575556 91.0026168,202.529856 90.9291619,202.482904 L90.7026245,202.335993 L90.6844723,202.324944 C90.2812895,202.07463 89.9214545,201.814098 89.5780764,201.536286 L89.4848156,201.460086 L89.3986325,201.388124 L89.190365,201.294904 C89.0679882,201.239391 88.9589406,201.188456 88.8383114,201.130316 L88.7314976,201.078442 C88.2376589,200.836947 87.7684429,200.577135 87.2904732,200.266102 L85.8140293,199.303987 L84.3726951,198.36221 L83.0182781,197.474987 C81.3567819,196.385302 79.6717142,195.27539 77.9497217,194.136589 L76.5640223,193.219084 L76.492945,193.190195 C75.1801626,192.654134 73.8852143,192.117379 72.5645322,191.561511 L71.9659406,191.308853 L71.9536643,191.319579 C71.1288065,192.027636 70.1947864,192.558569 69.2078257,192.911533 L69.143516,192.93407 L69.1636096,193.01769 C69.2866742,193.537991 69.3672633,194.080946 69.3972319,194.64579 L69.4025482,194.75905 C69.4713475,196.443971 69.0978438,198.195052 68.0596325,199.851495 C66.9230674,201.66486 65.235403,202.887924 63.3733353,203.476451 C62.1792205,203.853864 61.0635318,203.937666 60.0006677,203.844527 C58.8450159,203.743257 57.804458,203.42914 56.8775797,202.978379 L56.1092584,202.598755 L55.8720027,202.480401 L55.6452685,202.365921 C54.5732931,201.820938 53.8369412,201.389307 52.9567493,200.745647 L52.0956521,200.109165 L51.3452479,199.551449 C50.2547522,198.738774 49.3209279,198.032657 48.5258751,197.419761 L48.4141256,197.333306 L48.3803086,197.34693 C48.1494828,197.438426 47.9135399,197.520293 47.6729452,197.59204 L47.5825051,197.618469 C46.1408854,198.031176 44.7336532,198.036937 43.4301567,197.756731 C42.5831403,197.574652 41.8518792,197.289826 41.1874625,196.936753 C40.4522811,196.546076 39.8969072,196.131392 39.3855424,195.671222 C39.1208822,195.433057 38.8964131,195.206003 38.6815128,194.97112 C38.583632,194.864137 38.4935362,194.761696 38.4041749,194.657147 L38.3426715,194.58472 L38.2315876,194.451575 L37.2436548,193.336255 L36.4069887,192.3971 C34.6294481,190.408258 33.1930761,188.845828 31.6781488,187.260671 L31.2507889,186.81483 L31.1958293,186.781218 C30.7123457,186.480742 30.2654694,186.137 29.8547845,185.757699 L29.786672,185.694155 C29.341404,185.274549 29.0183455,184.899448 28.6805428,184.459051 L28.5594215,184.299234 L28.4319506,184.126845 C28.1469339,183.736857 27.7957409,183.227479 27.2070884,182.359448 C26.3359433,181.074851 25.8393876,179.604744 25.7156436,178.130073 C25.6121782,176.897064 25.7361328,175.609436 26.2923793,174.206511 C26.70682,173.161239 27.3243734,172.199634 28.1133918,171.386079 L28.1382694,171.360644 L28.1024348,171.249245 C27.1874734,168.377146 26.5536521,165.576369 26.1355727,162.541218 L26.089009,162.196019 L26.029856,161.740082 L25.9669079,161.230485 C25.823706,160.038911 25.7033949,158.805138 25.5461531,157.012909 L25.5091543,156.5872 L25.4950459,156.490836 C25.4247758,155.995921 25.3819017,155.542883 25.3824337,155.004077 C25.0323311,155.008474 24.6878443,154.997476 24.3284745,154.964837 C23.3198576,154.873232 22.3336161,154.555215 21.4602646,153.993068 C20.7397432,153.529293 20.0893507,152.907266 19.5644488,152.036861 C18.7454579,150.678789 18.4050949,148.947584 18.7611867,147.070946 C19.0702966,145.441907 19.8705321,143.933628 20.9967606,142.740899 C21.7829895,141.908245 22.6050818,141.337956 23.447174,140.921982 C23.8496741,140.723156 24.2143182,140.581074 24.5721392,140.466354 L24.6778846,140.433166 C24.7417294,140.41358 24.8017237,140.396023 24.8598971,140.379724 L24.9601437,140.352457 L25.8791849,140.072922 C25.958514,140.048962 26.0354529,140.025811 26.1102405,140.003409 L25.243951,139.12737 L24.0196604,137.884923 L22.8206849,136.665279 C21.2867603,135.103162 19.6939762,133.474535 18.030759,131.767761 L16.8975772,130.604015 C15.665001,129.33725 14.8332428,128.029069 14.04654,126.426848 C13.6951076,125.711111 13.42416,124.935546 13.2807705,124.05665 C11.2235415,123.49503 9.23494818,122.875285 7.29563568,122.188209 C5.68713235,121.618334 4.35563161,120.38748 3.69410311,118.595502 C3.12725598,117.060001 3.16681592,115.492118 3.57527265,114.040716 C3.96804493,112.645047 4.59123062,111.626859 5.3457742,110.735055 C5.80358844,110.193958 6.32319869,109.707002 6.88694418,109.290761 C7.50340633,108.835596 8.17007631,108.446791 8.94746257,108.163273 L2.42286841,101.753952 L2.38884328,101.71987 L2.18976923,101.509491 L2.11384779,101.42277 C2.05269825,101.350543 1.95556258,101.23224 1.75882431,100.992629 L1.64076126,100.837447 L1.58490633,100.759986 C1.5176235,100.664223 1.43442115,100.537268 1.24600809,100.249778 L1.15644053,100.101048 C1.01182146,99.8587057 0.967421797,99.7649319 0.675652597,99.1487039 L0.590933275,98.9416062 L0.543325317,98.8203739 C0.452472953,98.5816888 0.396029961,98.3800519 0.19459369,97.6604409 L0.155508641,97.4680998 C0.129572977,97.3244897 0.102972536,97.1265863 0.0161139511,96.4803714 L0.00369066753,96.2403431 L0,96.1879667 L0,96.0867081 C0,95.9722405 0.00377538094,95.8361484 0.0135950229,95.6187654 L0.0572787132,94.7290816 L0.28195249,93.5920329 L0.742373858,92.3062652 L1.50352602,90.9627286 L2.56631949,89.7098523 L3.83596636,88.694969 L5.1583073,87.9899294 L6.39718218,87.5737122 L7.47910231,87.3746655 L8.38712947,87.3171702 L9.13551683,87.3431592 L9.74946133,87.4143355 L10.0141578,87.4591601 L10.5416997,87.5808611 L10.6623774,87.6100068 L10.7511214,87.6323721 C10.9888892,87.6937568 11.1221203,87.7415341 11.4488761,87.8587105 L11.9173785,88.0580501 L12.0150642,88.1004052 C12.3020624,88.2258748 12.3904881,88.2755381 12.6695986,88.4322974 L12.9542795,88.6025171 L13.0159012,88.640902 L13.0802264,88.6497915 C13.8200772,88.7547303 14.3682231,88.91564 14.9201228,89.1265398 L15.0406791,89.1731493 L15.4649283,89.3207012 L15.6175732,89.3749194 C15.7650392,89.427892 15.8986918,89.4778455 16.0340389,89.5312353 C15.8885029,88.6046768 15.9179248,87.609278 16.1496378,86.5843175 L15.4188362,85.9033093 L15.1354758,85.6732393 C14.046664,84.7878715 12.9593767,83.8954758 11.9055261,83.019914 L11.2095746,82.4401197 C7.59512924,79.4210277 5.16968348,77.2698176 3.84394636,75.7732788 L3.76202369,75.6800272 C3.54157109,75.4269264 3.34026334,75.1776344 3.12154066,74.8667017 C2.88916805,74.5363645 2.67219219,74.187331 2.45278012,73.7496317 C2.25235946,73.349818 2.07321739,72.9201782 1.91999172,72.4203945 C1.6428188,71.516326 1.49054913,70.5394429 1.5618761,69.3936125 C1.82846507,65.1110005 5.1698262,61.8616586 9.20814655,61.4668072 C10.1901193,61.3707937 11.0389905,61.4467698 11.8372327,61.6198557 C12.2888787,61.7177879 12.6846795,61.8401052 13.0569828,61.9811686 C13.6976115,62.2238989 14.1334421,62.4565312 14.5874712,62.7385841 L14.649518,62.7773578 C15.0892976,63.053742 15.4640568,63.3298861 15.9487284,63.7133303 L16.1827998,63.8998668 L16.3597374,64.0425217 C16.9948406,64.5571957 17.7830082,65.2222422 18.3126409,65.6867813 L18.4751737,65.8303454 L18.603902,65.9458994 L18.7172391,66.0492585 C19.1081598,66.4086078 19.4448838,66.748581 19.9251089,67.2551669 L20.494153,67.8581316 L20.6625156,68.0336285 C20.7821801,68.1568676 20.8549327,68.2274593 20.9158905,68.2819559 L21.1124657,68.4553777 L21.2919631,68.6096462 L21.4478203,68.7408295 C21.6380746,68.899628 21.8610131,69.0812366 22.1503515,69.3138008 L23.2779076,70.2164301 L23.6146429,70.4885589 L23.8624514,70.6906865 C24.021917,70.8213981 24.1705421,70.9445877 24.312167,71.0636052 C24.6843249,70.8860514 25.0817395,70.732432 25.514755,70.6081719 L24.561476,69.716381 C23.8662491,69.0695081 23.1797616,68.4433071 22.1074673,67.4758169 L19.4773754,65.1059552 L18.6429452,64.3492188 L18.2864796,64.0239955 C17.7872213,63.5674375 17.3491863,63.1621077 16.8874248,62.7298705 L15.9571312,61.8568108 L15.6940151,61.6084694 C14.29799,60.2876541 13.4838241,59.4622112 12.5538269,58.3822325 L12.4967377,58.315787 C12.222357,57.9957264 11.9678824,57.6632916 11.6949118,57.2248419 C11.4091651,56.7658711 11.1528741,56.2693734 10.9263382,55.6540809 L10.8215018,55.3474972 L10.7727172,55.1981909 L10.7421238,55.098299 C10.6650175,54.8373794 10.6190792,54.6019492 10.4929764,53.9556833 L10.4557698,53.6153785 L10.4291036,53.34992 L10.417041,53.2086596 C10.369489,52.5959946 10.4138301,52.2621443 10.5920845,50.9200406 C11.2362877,47.9290742 13.4038429,45.5945375 16.1829321,44.659165 C17.7120927,44.1444874 19.0135908,44.1236024 20.2597345,44.3267817 C21.1867675,44.4779312 21.8289174,44.7072595 22.4822589,45.0083197 C23.139462,45.3111594 23.5493361,45.5688923 24.0988948,45.9501442 C24.6503862,46.3327369 25.2583525,46.7999731 25.7401915,47.2329666 L25.8238754,47.3089976 L26.0033942,47.475054 C26.4907488,47.9290396 26.8956699,48.3337831 27.5132746,48.9753519 L28.4292186,49.9309192 L28.6588894,50.1676013 L28.8031276,50.3143746 C28.985259,50.4984772 29.1293326,50.6388756 29.2675874,50.7676811 L29.3703899,50.8623058 L29.4174879,50.8597391 C29.497808,50.8556105 29.5780322,50.852544 29.6581457,50.8505012 L29.7382217,50.8487982 C31.0605094,50.8262527 31.9681424,51.0477033 32.9016891,51.3987566 C33.2503284,51.5298599 33.5413371,51.6624834 33.8224504,51.8055792 C34.0741947,51.9337252 34.2932615,52.0579899 34.5148208,52.1923909 L34.598091,52.2432938 C35.0271021,52.5074706 35.4893412,52.8224021 36.1045358,53.2579504 L36.462715,53.5129006 L37.4695912,54.2362129 C38.3694627,54.8784348 39.2336851,55.5367254 40.063551,56.2148635 C40.7605897,55.8330731 41.4555241,55.4682094 42.1492905,55.120289 L43.5522645,54.424286 C43.4703792,53.6545995 43.5096241,52.8413765 43.6866369,52.0062469 L43.6989371,51.949942 L43.692325,51.9465053 C42.7543833,51.4592618 41.8663846,50.888118 41.0278562,50.2252267 L40.8689981,50.0980197 L40.815895,50.1084563 C40.3474636,50.1998191 39.9053848,50.2561674 39.3758603,50.2730862 L39.2867771,50.2755401 C37.8377542,50.3091723 36.4152125,49.9802078 35.1256882,49.093025 C34.341433,48.5534634 33.6533523,47.8216753 33.1464355,46.8009417 C32.4488166,45.3962081 32.2626027,43.7041972 32.653569,41.9969805 C32.9633295,40.6443625 33.5666265,39.5018276 34.3280559,38.5410326 C34.7811418,37.9701066 35.2463986,37.5176638 35.7297733,37.127227 C36.1750843,36.7675354 36.5805143,36.5019083 36.993085,36.2704121 L36.973803,36.2498966 L36.973803,36.2498966 L36.8555303,36.1208413 L36.7583839,36.01231 C36.5998246,35.8331639 36.4549516,35.6582358 36.2777005,35.4203395 C36.1517108,35.2512432 36.027057,35.0723349 35.8943745,34.8617183 C35.6087463,34.40832 35.3571788,33.9351486 35.1176007,33.2919828 L35.0640718,33.1457868 C34.2044753,30.756066 34.0759568,28.273183 36.1950349,25.34478 C38.8187807,21.7189649 42.1780689,21.3245493 45.1948516,22.1080819 C46.0009398,22.3174429 46.5795945,22.5726219 47.1423169,22.8807347 C47.3875705,23.0150207 47.5938657,23.1424485 47.7892246,23.2728303 C47.9899214,23.4067747 48.1530496,23.5263746 48.31342,23.6506221 C48.4692766,23.7713726 48.6075439,23.8853686 48.7573554,24.0131892 L49.4768281,24.6292949 C50.7161555,25.6947053 51.8897369,26.7261946 53.5951418,28.2458121 L53.9931475,28.601776 C54.3581157,28.372445 54.7247199,28.1429368 55.094393,27.9123606 L55.5840139,27.6075918 L55.5842051,27.5936314 C55.6048853,26.661753 55.796001,25.7378091 56.1267821,24.862335 L56.1486217,24.8055137 L56.0856601,24.7793277 C55.6949899,24.6149913 55.3139339,24.40936 54.9474995,24.1569916 L54.8744091,24.1058932 C53.7928048,23.3383822 52.9164176,22.2231286 52.4686043,20.6793321 C51.9783678,18.9892857 52.1603875,17.1920076 52.8323881,15.577791 C53.2633316,14.5426192 53.8324286,13.7057224 54.4816867,12.9922838 C55.1876248,12.2165622 55.9612977,11.6261427 56.7563078,11.183084 L57.419017,10.8187117 L57.6243582,10.7067411 L57.8421088,10.589327 C58.7655757,10.0947761 59.4392407,9.780765 60.3211442,9.46685406 L61.1945401,9.16075558 L62.1654354,8.82358511 L63.1011769,8.50226341 C63.7412931,8.28389538 64.3215686,8.08915876 64.8467551,7.91640764 L64.9624876,7.87855182 L64.9728739,7.84781315 C65.0446962,7.6387256 65.1253284,7.43065231 65.2148167,7.22416431 L65.2487901,7.14680674 C65.7956395,5.91788194 66.5753323,4.91073065 67.474358,4.11621348 C68.0585479,3.5999335 68.6419302,3.21606682 69.2303662,2.9129846 C69.8814745,2.57762215 70.4473675,2.38222554 71.016931,2.24028439 C71.3117123,2.16682183 71.5772438,2.11665942 71.8422974,2.07712104 C71.9630216,2.05911247 72.0766007,2.04445925 72.1910761,2.03135172 L72.2701554,2.02255806 L72.4144286,2.00780644 L73.6549193,1.84325751 L74.3375065,1.75110054 C76.731933,1.42541314 78.5911998,1.14557553 80.5146877,0.815679065 L81.0286216,0.726748447 L81.0800244,0.703813315 C81.5351854,0.504373695 81.996762,0.352030815 82.4602121,0.242751482 L82.5374704,0.224936304 C83.0451264,0.110508945 83.4572039,0.0617346445 83.9179193,0.0340833073 L84.0842948,0.0250948737 C84.5133002,0.00452347259 85.039895,0 86.0381227,0 Z" id="Path" fill="#D7EDFF" opacity="0.800000012"></path>
            </g>
            <path d="M119.124856,43.6132136 L119.836258,45.5677743 L117.586935,54.9424501 L122.623688,53.1092222 L123.608706,55.8155369 L114.587657,59.0989303 L113.876255,57.1443696 L116.125578,47.7696938 L111.615053,49.4113905 L110.630035,46.7050757 L119.124856,43.6132136 Z M129.315845,34.6111857 L129.884966,36.1748342 L128.085508,43.6745749 L132.11491,42.2079925 L132.902924,44.3730443 L125.686085,46.999759 L125.116964,45.4361105 L126.916422,37.9363698 L123.308002,39.2497271 L122.519988,37.0846753 L129.315845,34.6111857 Z M137.853615,27.4488748 L144.085479,28.5477205 L143.832647,29.9816005 L139.187931,34.8774328 L142.88293,35.5289607 L142.532855,37.5143332 L135.914947,36.3474174 L136.167778,34.9135373 L140.812495,30.0177051 L137.50354,29.4342472 L137.853615,27.4488748 Z" id="Combined-Shape" fill="#000000" fill-rule="nonzero"></path>
            <g id="sloths" transform="translate(6.000000, 57.000000)">
                <g id="Group" transform="translate(0.000000, 40.000000)">
                    <path d="M42,-1.5 C47.2256457,-1.5 53.1546088,0.730102795 57.5899796,4.32064107 C61.7096156,7.65558442 64.5,12.1334447 64.5,17 C64.5,19.1707538 63.3486953,21.2973403 61.2244886,23.2538922 C59.1355706,25.1779406 56.0959077,26.9576564 52.6024112,28.5085104 C43.4795702,32.5583769 31.2510199,35.0834755 25.6436059,35.0834755 C20.4179601,35.0834755 14.488997,32.8533727 10.0536262,29.2628344 C5.93399031,25.9278911 3.14360587,21.4500308 3.14360587,16.5834755 C3.14360587,14.4127217 4.29491062,12.2861352 6.41911732,10.3295833 C8.50803524,8.40553491 11.5476982,6.62581914 15.0411947,5.07496511 C24.1640357,1.02509859 36.392586,-1.5 42,-1.5 Z" id="Mask" stroke="#000000" stroke-width="3" fill="#B89A7B"></path>
                    <polygon id="Path-3" fill="#000000" points="4.66036598 21 0 25 6 25"></polygon>
                    <polygon id="Path-3-Copy" fill="#000000" transform="translate(6.000000, 27.000000) rotate(-15.000000) translate(-6.000000, -27.000000) " points="7.66036598 25 3 29 9 29"></polygon>
                    <polygon id="Path-3-Copy-2" fill="#000000" transform="translate(9.000000, 31.000000) rotate(-30.000000) translate(-9.000000, -31.000000) " points="10.660366 29 6 33 12 33"></polygon>
                </g>
                <path d="M87,4.5 C99.2431861,4.5 113.122236,9.71285116 123.509135,18.0631037 C132.976507,25.6741281 139.5,35.862528 139.5,47 C139.5,58.137472 132.976507,68.3258719 123.509135,75.9368963 C113.122236,84.2871488 99.2431861,89.5 87,89.5 C74.7568139,89.5 60.8777643,84.2871488 50.4908647,75.9368963 C41.023493,68.3258719 34.5,58.137472 34.5,47 C34.5,35.862528 41.023493,25.6741281 50.4908647,18.0631037 C60.8777643,9.71285116 74.7568139,4.5 87,4.5 Z" id="Mask" stroke="#000000" stroke-width="3" fill="#B89A7B"></path>
                <g id="Group" transform="translate(53.000000, 57.000000)">
                    <path d="M42,-1.5 C47.2256457,-1.5 53.1546088,0.730102795 57.5899796,4.32064107 C61.7096156,7.65558442 64.5,12.1334447 64.5,17 C64.5,19.1707538 63.3486953,21.2973403 61.2244886,23.2538922 C59.1355706,25.1779406 56.0959077,26.9576564 52.6024112,28.5085104 C43.4795702,32.5583769 31.2510199,35.0834755 25.6436059,35.0834755 C20.4179601,35.0834755 14.488997,32.8533727 10.0536262,29.2628344 C5.93399031,25.9278911 3.14360587,21.4500308 3.14360587,16.5834755 C3.14360587,14.4127217 4.29491062,12.2861352 6.41911732,10.3295833 C8.50803524,8.40553491 11.5476982,6.62581914 15.0411947,5.07496511 C24.1640357,1.02509859 36.392586,-1.5 42,-1.5 Z" id="Mask" stroke="#000000" stroke-width="3" fill="#B89A7B"></path>
                    <polygon id="Path-3" fill="#000000" points="4.66036598 21 0 25 6 25"></polygon>
                    <polygon id="Path-3-Copy" fill="#000000" transform="translate(6.000000, 27.000000) rotate(-15.000000) translate(-6.000000, -27.000000) " points="7.66036598 25 3 29 9 29"></polygon>
                    <polygon id="Path-3-Copy-2" fill="#000000" transform="translate(9.000000, 31.000000) rotate(-30.000000) translate(-9.000000, -31.000000) " points="10.660366 29 6 33 12 33"></polygon>
                </g>
                <g id="Oval" transform="translate(78.000000, 0.000000)">
                    <mask id="mask-2" fill="white">
                        <use xlink:href="#path-1"></use>
                    </mask>
                    <g id="Mask" fill="#B89A7B">
                        <use xlink:href="#path-1"></use>
                        <path stroke="#000000" stroke-width="3" d="M59.4856575,-1.22062514 C59.814381,-1.25600982 60.0876202,-1.21881163 60.3055784,-1.15285293 C60.7627583,-1.01450074 61.0792043,-0.743307623 61.2904155,-0.386911805 C61.4740441,-0.0770586543 61.6631718,0.532408141 61.3864425,1.50080588 L61.3864425,1.50080588 L61.2784164,1.84921355 L61.1420713,2.23441555 L60.9144323,2.82292081 L60.4167188,4.04518032 L60.291,4.36 L60.4305409,4.2861484 C60.4724705,4.26318048 60.5146607,4.23996502 60.557095,4.21651862 L60.6851137,4.14550329 L61.5290963,3.66670937 L63.9045838,2.29672423 L64.4929351,1.96933241 L65.0534487,1.66892565 C66.620588,0.848408778 67.8690972,0.584035833 68.4355389,0.721861633 C68.9310571,0.842430398 69.2842285,1.10588206 69.5379992,1.45971471 C69.73557,1.73518771 69.8798106,2.08920039 69.9137568,2.53574464 C69.9467836,2.97019577 69.8515714,3.57735877 69.6282492,4.27153258 L69.6282492,4.27153258 L69.4781481,4.71155341 L69.3064322,5.17223419 L68.69362,6.72950203 L68.542276,7.13858506 C68.4865032,7.29517875 68.4322477,7.44533784 68.3874953,7.58644171 C77.883766,10.8451924 86.9735361,16.50984 93.5064521,23.6739021 C99.6277069,30.3865324 103.5,38.4077065 103.5,47 C103.5,58.137472 96.976507,68.3258719 87.5091353,75.9368963 C77.1222357,84.2871488 63.2431861,89.5 51,89.5 C38.7568139,89.5 24.8777643,84.2871488 14.4908647,75.9368963 C5.02349297,68.3258719 -1.5,58.137472 -1.5,47 C-1.5,35.7007531 4.3925832,25.5508756 13.1840612,18.0703153 C22.5942012,10.0633432 35.3035797,5.1417056 47.4132293,5.13472464 L47.4132293,5.13472464 L47.416,5.134 L47.543,5.115 L47.5829209,5.10786507 L47.8081291,5.05533728 C47.8370998,5.04785478 47.8668081,5.03994069 47.8972324,5.03159524 L47.8972324,5.03159524 L48.1745573,4.94937941 L48.4875111,4.84489246 C48.5882578,4.80933574 48.6928621,4.77071726 48.8009618,4.72896863 L48.8009618,4.72896863 L49.1850124,4.57333839 C50.0083648,4.22435231 50.9828871,3.71477666 51.9872887,3.01170779 L51.9872887,3.01170779 L52.7056183,2.51279078 L53.9015879,1.70153685 L54.7452161,1.14691433 L55.591827,0.609129887 L56.2178009,0.227071498 L56.6283528,-0.0143852518 L57.0270664,-0.240316436 L57.4142236,-0.449736476 L58.3042699,-0.877490272 C58.7802066,-1.07977628 59.1856214,-1.18832846 59.4856575,-1.22062514 Z"></path>
                    </g>
                    <g id="Mask" mask="url(#mask-2)">
                        <g transform="translate(20.000000, 24.039216)">
                            <mask id="mask-4" fill="white">
                                <use xlink:href="#path-3"></use>
                            </mask>
                            <use id="Mask" stroke="none" fill="#E5D4C2" fill-rule="evenodd" xlink:href="#path-3"></use>
                            <path d="M73.5,46.9607843 C81.2698884,46.9607843 91,40.6927708 91,32.9607843 C91,25.2287978 81.2698884,18.9607843 73.5,18.9607843 C65.7301116,18.9607843 56,25.2287978 56,32.9607843 C56,40.6927708 65.7301116,46.9607843 73.5,46.9607843 Z" id="Mask" stroke="none" fill="#A38565" fill-rule="evenodd" mask="url(#mask-4)"></path>
                            <path d="M20,63.9607843 C30.2118533,63.9607843 43,55.6780522 43,45.4607843 C43,35.2435164 30.2118533,26.9607843 20,26.9607843 C9.78814669,26.9607843 -3,35.2435164 -3,45.4607843 C-3,55.6780522 9.78814669,63.9607843 20,63.9607843 Z" id="Mask" stroke="none" fill="#A38565" fill-rule="evenodd" mask="url(#mask-4)"></path>
                            <path d="M51,51.9607843 C54.1079554,51.9607843 58,49.2744928 58,45.9607843 C58,42.6470758 54.1079554,39.9607843 51,39.9607843 C47.8920446,39.9607843 44,42.6470758 44,45.9607843 C44,49.2744928 47.8920446,51.9607843 51,51.9607843 Z" id="Mask" stroke="none" fill="#000000" fill-rule="evenodd" mask="url(#mask-4)"></path>
                            <path d="M30.2763587,41.6468805 C31.0020077,41.2472244 31.9142477,41.5114939 32.3139038,42.237143 C32.7135599,42.962792 32.4492904,43.875032 31.7236413,44.2746881 C28.8192982,45.8742746 26.4829101,46.7728854 24.6469107,46.9535727 C22.79599,47.1357285 20.4302125,46.6914634 17.4995273,45.6542075 C16.718571,45.377804 16.3095502,44.5206446 16.5859537,43.7396884 C16.8623571,42.9587322 17.7195165,42.5497113 18.5004727,42.8261148 C21.0532698,43.729625 23.0208257,44.0991088 24.3530893,43.9679959 C25.7002743,43.8354146 27.6972195,43.0673587 30.2763587,41.6468805 Z" id="Path-2" stroke="none" fill="#000000" fill-rule="nonzero" mask="url(#mask-4)"></path>
                            <path d="M75.2763587,28.6468805 C76.0020077,28.2472244 76.9142477,28.5114939 77.3139038,29.237143 C77.7135599,29.962792 77.4492904,30.875032 76.7236413,31.2746881 C73.8192982,32.8742746 71.4829101,33.7728854 69.6469107,33.9535727 C67.79599,34.1357285 65.4302125,33.6914634 62.4995273,32.6542075 C61.718571,32.377804 61.3095502,31.5206446 61.5859537,30.7396884 C61.8623571,29.9587322 62.7195165,29.5497113 63.5004727,29.8261148 C66.0532698,30.729625 68.0208257,31.0991088 69.3530893,30.9679959 C70.7002743,30.8354146 72.6972195,30.0673587 75.2763587,28.6468805 Z" id="Path-2" stroke="none" fill="#000000" fill-rule="nonzero" mask="url(#mask-4)" transform="translate(69.499935, 31.226954) rotate(-18.000000) translate(-69.499935, -31.226954) "></path>
                        </g>
                    </g>
                </g>
            </g>
        </g>
    </g>
</svg>